Verilog_FormalVerification_Beginner/workspace/12LEDWalker/src/obj_dir/ledwalkertrace.vcd
$version Generated by VerilatedVcd $end
$date Wed Nov 22 15:15:44 2023
 $end
$timescale   1ns $end

 $scope module TOP $end
  $var wire  1 ; i_clk $end
  $var wire  8 C o_led [7:0] $end
  $scope module ledwalker $end
   $var wire 32 K CLK_RATE_HZ [31:0] $end
   $var wire  1 ; i_clk $end
   $var wire  4 # led_index [3:0] $end
   $var wire  8 C o_led [7:0] $end
   $var wire  1 3 stb $end
   $var wire 32 + wait_counter [31:0] $end
  $upscope $end
 $upscope $end
$enddefinitions $end


#8
b0000 #
b00000000000000000000001111100111 +
03
0;
b00000001 C
b00000000000000000000001111101000 K
#10
b00000000000000000000001111100110 +
1;
#15
0;
#18
#20
b00000000000000000000001111100101 +
1;
#25
0;
#28
#30
b00000000000000000000001111100100 +
1;
#35
0;
#38
#40
b00000000000000000000001111100011 +
1;
#45
0;
#48
#50
b00000000000000000000001111100010 +
1;
#55
0;
#58
#60
b00000000000000000000001111100001 +
1;
#65
0;
#68
#70
b00000000000000000000001111100000 +
1;
#75
0;
#78
#80
b00000000000000000000001111011111 +
1;
#85
0;
#88
#90
b00000000000000000000001111011110 +
1;
#95
0;
#98
#100
b00000000000000000000001111011101 +
1;
#105
0;
#108
#110
b00000000000000000000001111011100 +
1;
#115
0;
#118
#120
b00000000000000000000001111011011 +
1;
#125
0;
#128
#130
b00000000000000000000001111011010 +
1;
#135
0;
#138
#140
b00000000000000000000001111011001 +
1;
#145
0;
#148
#150
b00000000000000000000001111011000 +
1;
#155
0;
#158
#160
b00000000000000000000001111010111 +
1;
#165
0;
#168
#170
b00000000000000000000001111010110 +
1;
#175
0;
#178
#180
b00000000000000000000001111010101 +
1;
#185
0;
#188
#190
b00000000000000000000001111010100 +
1;
#195
0;
#198
#200
b00000000000000000000001111010011 +
1;
#205
0;
#208
#210
b00000000000000000000001111010010 +
1;
#215
0;
#218
#220
b00000000000000000000001111010001 +
1;
#225
0;
#228
#230
b00000000000000000000001111010000 +
1;
#235
0;
#238
#240
b00000000000000000000001111001111 +
1;
#245
0;
#248
#250
b00000000000000000000001111001110 +
1;
#255
0;
#258
#260
b00000000000000000000001111001101 +
1;
#265
0;
#268
#270
b00000000000000000000001111001100 +
1;
#275
0;
#278
#280
b00000000000000000000001111001011 +
1;
#285
0;
#288
#290
b00000000000000000000001111001010 +
1;
#295
0;
#298
#300
b00000000000000000000001111001001 +
1;
#305
0;
#308
#310
b00000000000000000000001111001000 +
1;
#315
0;
#318
#320
b00000000000000000000001111000111 +
1;
#325
0;
#328
#330
b00000000000000000000001111000110 +
1;
#335
0;
#338
#340
b00000000000000000000001111000101 +
1;
#345
0;
#348
#350
b00000000000000000000001111000100 +
1;
#355
0;
#358
#360
b00000000000000000000001111000011 +
1;
#365
0;
#368
#370
b00000000000000000000001111000010 +
1;
#375
0;
#378
#380
b00000000000000000000001111000001 +
1;
#385
0;
#388
#390
b00000000000000000000001111000000 +
1;
#395
0;
#398
#400
b00000000000000000000001110111111 +
1;
#405
0;
#408
#410
b00000000000000000000001110111110 +
1;
#415
0;
#418
#420
b00000000000000000000001110111101 +
1;
#425
0;
#428
#430
b00000000000000000000001110111100 +
1;
#435
0;
#438
#440
b00000000000000000000001110111011 +
1;
#445
0;
#448
#450
b00000000000000000000001110111010 +
1;
#455
0;
#458
#460
b00000000000000000000001110111001 +
1;
#465
0;
#468
#470
b00000000000000000000001110111000 +
1;
#475
0;
#478
#480
b00000000000000000000001110110111 +
1;
#485
0;
#488
#490
b00000000000000000000001110110110 +
1;
#495
0;
#498
#500
b00000000000000000000001110110101 +
1;
#505
0;
#508
#510
b00000000000000000000001110110100 +
1;
#515
0;
#518
#520
b00000000000000000000001110110011 +
1;
#525
0;
#528
#530
b00000000000000000000001110110010 +
1;
#535
0;
#538
#540
b00000000000000000000001110110001 +
1;
#545
0;
#548
#550
b00000000000000000000001110110000 +
1;
#555
0;
#558
#560
b00000000000000000000001110101111 +
1;
#565
0;
#568
#570
b00000000000000000000001110101110 +
1;
#575
0;
#578
#580
b00000000000000000000001110101101 +
1;
#585
0;
#588
#590
b00000000000000000000001110101100 +
1;
#595
0;
#598
#600
b00000000000000000000001110101011 +
1;
#605
0;
#608
#610
b00000000000000000000001110101010 +
1;
#615
0;
#618
#620
b00000000000000000000001110101001 +
1;
#625
0;
#628
#630
b00000000000000000000001110101000 +
1;
#635
0;
#638
#640
b00000000000000000000001110100111 +
1;
#645
0;
#648
#650
b00000000000000000000001110100110 +
1;
#655
0;
#658
#660
b00000000000000000000001110100101 +
1;
#665
0;
#668
#670
b00000000000000000000001110100100 +
1;
#675
0;
#678
#680
b00000000000000000000001110100011 +
1;
#685
0;
#688
#690
b00000000000000000000001110100010 +
1;
#695
0;
#698
#700
b00000000000000000000001110100001 +
1;
#705
0;
#708
#710
b00000000000000000000001110100000 +
1;
#715
0;
#718
#720
b00000000000000000000001110011111 +
1;
#725
0;
#728
#730
b00000000000000000000001110011110 +
1;
#735
0;
#738
#740
b00000000000000000000001110011101 +
1;
#745
0;
#748
#750
b00000000000000000000001110011100 +
1;
#755
0;
#758
#760
b00000000000000000000001110011011 +
1;
#765
0;
#768
#770
b00000000000000000000001110011010 +
1;
#775
0;
#778
#780
b00000000000000000000001110011001 +
1;
#785
0;
#788
#790
b00000000000000000000001110011000 +
1;
#795
0;
#798
#800
b00000000000000000000001110010111 +
1;
#805
0;
#808
#810
b00000000000000000000001110010110 +
1;
#815
0;
#818
#820
b00000000000000000000001110010101 +
1;
#825
0;
#828
#830
b00000000000000000000001110010100 +
1;
#835
0;
#838
#840
b00000000000000000000001110010011 +
1;
#845
0;
#848
#850
b00000000000000000000001110010010 +
1;
#855
0;
#858
#860
b00000000000000000000001110010001 +
1;
#865
0;
#868
#870
b00000000000000000000001110010000 +
1;
#875
0;
#878
#880
b00000000000000000000001110001111 +
1;
#885
0;
#888
#890
b00000000000000000000001110001110 +
1;
#895
0;
#898
#900
b00000000000000000000001110001101 +
1;
#905
0;
#908
#910
b00000000000000000000001110001100 +
1;
#915
0;
#918
#920
b00000000000000000000001110001011 +
1;
#925
0;
#928
#930
b00000000000000000000001110001010 +
1;
#935
0;
#938
#940
b00000000000000000000001110001001 +
1;
#945
0;
#948
#950
b00000000000000000000001110001000 +
1;
#955
0;
#958
#960
b00000000000000000000001110000111 +
1;
#965
0;
#968
#970
b00000000000000000000001110000110 +
1;
#975
0;
#978
#980
b00000000000000000000001110000101 +
1;
#985
0;
#988
#990
b00000000000000000000001110000100 +
1;
#995
0;
#998
#1000
b00000000000000000000001110000011 +
1;
#1005
0;
#1008
#1010
b00000000000000000000001110000010 +
1;
#1015
0;
#1018
#1020
b00000000000000000000001110000001 +
1;
#1025
0;
#1028
#1030
b00000000000000000000001110000000 +
1;
#1035
0;
#1038
#1040
b00000000000000000000001101111111 +
1;
#1045
0;
#1048
#1050
b00000000000000000000001101111110 +
1;
#1055
0;
#1058
#1060
b00000000000000000000001101111101 +
1;
#1065
0;
#1068
#1070
b00000000000000000000001101111100 +
1;
#1075
0;
#1078
#1080
b00000000000000000000001101111011 +
1;
#1085
0;
#1088
#1090
b00000000000000000000001101111010 +
1;
#1095
0;
#1098
#1100
b00000000000000000000001101111001 +
1;
#1105
0;
#1108
#1110
b00000000000000000000001101111000 +
1;
#1115
0;
#1118
#1120
b00000000000000000000001101110111 +
1;
#1125
0;
#1128
#1130
b00000000000000000000001101110110 +
1;
#1135
0;
#1138
#1140
b00000000000000000000001101110101 +
1;
#1145
0;
#1148
#1150
b00000000000000000000001101110100 +
1;
#1155
0;
#1158
#1160
b00000000000000000000001101110011 +
1;
#1165
0;
#1168
#1170
b00000000000000000000001101110010 +
1;
#1175
0;
#1178
#1180
b00000000000000000000001101110001 +
1;
#1185
0;
#1188
#1190
b00000000000000000000001101110000 +
1;
#1195
0;
#1198
#1200
b00000000000000000000001101101111 +
1;
#1205
0;
#1208
#1210
b00000000000000000000001101101110 +
1;
#1215
0;
#1218
#1220
b00000000000000000000001101101101 +
1;
#1225
0;
#1228
#1230
b00000000000000000000001101101100 +
1;
#1235
0;
#1238
#1240
b00000000000000000000001101101011 +
1;
#1245
0;
#1248
#1250
b00000000000000000000001101101010 +
1;
#1255
0;
#1258
#1260
b00000000000000000000001101101001 +
1;
#1265
0;
#1268
#1270
b00000000000000000000001101101000 +
1;
#1275
0;
#1278
#1280
b00000000000000000000001101100111 +
1;
#1285
0;
#1288
#1290
b00000000000000000000001101100110 +
1;
#1295
0;
#1298
#1300
b00000000000000000000001101100101 +
1;
#1305
0;
#1308
#1310
b00000000000000000000001101100100 +
1;
#1315
0;
#1318
#1320
b00000000000000000000001101100011 +
1;
#1325
0;
#1328
#1330
b00000000000000000000001101100010 +
1;
#1335
0;
#1338
#1340
b00000000000000000000001101100001 +
1;
#1345
0;
#1348
#1350
b00000000000000000000001101100000 +
1;
#1355
0;
#1358
#1360
b00000000000000000000001101011111 +
1;
#1365
0;
#1368
#1370
b00000000000000000000001101011110 +
1;
#1375
0;
#1378
#1380
b00000000000000000000001101011101 +
1;
#1385
0;
#1388
#1390
b00000000000000000000001101011100 +
1;
#1395
0;
#1398
#1400
b00000000000000000000001101011011 +
1;
#1405
0;
#1408
#1410
b00000000000000000000001101011010 +
1;
#1415
0;
#1418
#1420
b00000000000000000000001101011001 +
1;
#1425
0;
#1428
#1430
b00000000000000000000001101011000 +
1;
#1435
0;
#1438
#1440
b00000000000000000000001101010111 +
1;
#1445
0;
#1448
#1450
b00000000000000000000001101010110 +
1;
#1455
0;
#1458
#1460
b00000000000000000000001101010101 +
1;
#1465
0;
#1468
#1470
b00000000000000000000001101010100 +
1;
#1475
0;
#1478
#1480
b00000000000000000000001101010011 +
1;
#1485
0;
#1488
#1490
b00000000000000000000001101010010 +
1;
#1495
0;
#1498
#1500
b00000000000000000000001101010001 +
1;
#1505
0;
#1508
#1510
b00000000000000000000001101010000 +
1;
#1515
0;
#1518
#1520
b00000000000000000000001101001111 +
1;
#1525
0;
#1528
#1530
b00000000000000000000001101001110 +
1;
#1535
0;
#1538
#1540
b00000000000000000000001101001101 +
1;
#1545
0;
#1548
#1550
b00000000000000000000001101001100 +
1;
#1555
0;
#1558
#1560
b00000000000000000000001101001011 +
1;
#1565
0;
#1568
#1570
b00000000000000000000001101001010 +
1;
#1575
0;
#1578
#1580
b00000000000000000000001101001001 +
1;
#1585
0;
#1588
#1590
b00000000000000000000001101001000 +
1;
#1595
0;
#1598
#1600
b00000000000000000000001101000111 +
1;
#1605
0;
#1608
#1610
b00000000000000000000001101000110 +
1;
#1615
0;
#1618
#1620
b00000000000000000000001101000101 +
1;
#1625
0;
#1628
#1630
b00000000000000000000001101000100 +
1;
#1635
0;
#1638
#1640
b00000000000000000000001101000011 +
1;
#1645
0;
#1648
#1650
b00000000000000000000001101000010 +
1;
#1655
0;
#1658
#1660
b00000000000000000000001101000001 +
1;
#1665
0;
#1668
#1670
b00000000000000000000001101000000 +
1;
#1675
0;
#1678
#1680
b00000000000000000000001100111111 +
1;
#1685
0;
#1688
#1690
b00000000000000000000001100111110 +
1;
#1695
0;
#1698
#1700
b00000000000000000000001100111101 +
1;
#1705
0;
#1708
#1710
b00000000000000000000001100111100 +
1;
#1715
0;
#1718
#1720
b00000000000000000000001100111011 +
1;
#1725
0;
#1728
#1730
b00000000000000000000001100111010 +
1;
#1735
0;
#1738
#1740
b00000000000000000000001100111001 +
1;
#1745
0;
#1748
#1750
b00000000000000000000001100111000 +
1;
#1755
0;
#1758
#1760
b00000000000000000000001100110111 +
1;
#1765
0;
#1768
#1770
b00000000000000000000001100110110 +
1;
#1775
0;
#1778
#1780
b00000000000000000000001100110101 +
1;
#1785
0;
#1788
#1790
b00000000000000000000001100110100 +
1;
#1795
0;
#1798
#1800
b00000000000000000000001100110011 +
1;
#1805
0;
#1808
#1810
b00000000000000000000001100110010 +
1;
#1815
0;
#1818
#1820
b00000000000000000000001100110001 +
1;
#1825
0;
#1828
#1830
b00000000000000000000001100110000 +
1;
#1835
0;
#1838
#1840
b00000000000000000000001100101111 +
1;
#1845
0;
#1848
#1850
b00000000000000000000001100101110 +
1;
#1855
0;
#1858
#1860
b00000000000000000000001100101101 +
1;
#1865
0;
#1868
#1870
b00000000000000000000001100101100 +
1;
#1875
0;
#1878
#1880
b00000000000000000000001100101011 +
1;
#1885
0;
#1888
#1890
b00000000000000000000001100101010 +
1;
#1895
0;
#1898
#1900
b00000000000000000000001100101001 +
1;
#1905
0;
#1908
#1910
b00000000000000000000001100101000 +
1;
#1915
0;
#1918
#1920
b00000000000000000000001100100111 +
1;
#1925
0;
#1928
#1930
b00000000000000000000001100100110 +
1;
#1935
0;
#1938
#1940
b00000000000000000000001100100101 +
1;
#1945
0;
#1948
#1950
b00000000000000000000001100100100 +
1;
#1955
0;
#1958
#1960
b00000000000000000000001100100011 +
1;
#1965
0;
#1968
#1970
b00000000000000000000001100100010 +
1;
#1975
0;
#1978
#1980
b00000000000000000000001100100001 +
1;
#1985
0;
#1988
#1990
b00000000000000000000001100100000 +
1;
#1995
0;
#1998
#2000
b00000000000000000000001100011111 +
1;
#2005
0;
#2008
#2010
b00000000000000000000001100011110 +
1;
#2015
0;
#2018
#2020
b00000000000000000000001100011101 +
1;
#2025
0;
#2028
#2030
b00000000000000000000001100011100 +
1;
#2035
0;
#2038
#2040
b00000000000000000000001100011011 +
1;
#2045
0;
#2048
#2050
b00000000000000000000001100011010 +
1;
#2055
0;
#2058
#2060
b00000000000000000000001100011001 +
1;
#2065
0;
#2068
#2070
b00000000000000000000001100011000 +
1;
#2075
0;
#2078
#2080
b00000000000000000000001100010111 +
1;
#2085
0;
#2088
#2090
b00000000000000000000001100010110 +
1;
#2095
0;
#2098
#2100
b00000000000000000000001100010101 +
1;
#2105
0;
#2108
#2110
b00000000000000000000001100010100 +
1;
#2115
0;
#2118
#2120
b00000000000000000000001100010011 +
1;
#2125
0;
#2128
#2130
b00000000000000000000001100010010 +
1;
#2135
0;
#2138
#2140
b00000000000000000000001100010001 +
1;
#2145
0;
#2148
#2150
b00000000000000000000001100010000 +
1;
#2155
0;
#2158
#2160
b00000000000000000000001100001111 +
1;
#2165
0;
#2168
#2170
b00000000000000000000001100001110 +
1;
#2175
0;
#2178
#2180
b00000000000000000000001100001101 +
1;
#2185
0;
#2188
#2190
b00000000000000000000001100001100 +
1;
#2195
0;
#2198
#2200
b00000000000000000000001100001011 +
1;
#2205
0;
#2208
#2210
b00000000000000000000001100001010 +
1;
#2215
0;
#2218
#2220
b00000000000000000000001100001001 +
1;
#2225
0;
#2228
#2230
b00000000000000000000001100001000 +
1;
#2235
0;
#2238
#2240
b00000000000000000000001100000111 +
1;
#2245
0;
#2248
#2250
b00000000000000000000001100000110 +
1;
#2255
0;
#2258
#2260
b00000000000000000000001100000101 +
1;
#2265
0;
#2268
#2270
b00000000000000000000001100000100 +
1;
#2275
0;
#2278
#2280
b00000000000000000000001100000011 +
1;
#2285
0;
#2288
#2290
b00000000000000000000001100000010 +
1;
#2295
0;
#2298
#2300
b00000000000000000000001100000001 +
1;
#2305
0;
#2308
#2310
b00000000000000000000001100000000 +
1;
#2315
0;
#2318
#2320
b00000000000000000000001011111111 +
1;
#2325
0;
#2328
#2330
b00000000000000000000001011111110 +
1;
#2335
0;
#2338
#2340
b00000000000000000000001011111101 +
1;
#2345
0;
#2348
#2350
b00000000000000000000001011111100 +
1;
#2355
0;
#2358
#2360
b00000000000000000000001011111011 +
1;
#2365
0;
#2368
#2370
b00000000000000000000001011111010 +
1;
#2375
0;
#2378
#2380
b00000000000000000000001011111001 +
1;
#2385
0;
#2388
#2390
b00000000000000000000001011111000 +
1;
#2395
0;
#2398
#2400
b00000000000000000000001011110111 +
1;
#2405
0;
#2408
#2410
b00000000000000000000001011110110 +
1;
#2415
0;
#2418
#2420
b00000000000000000000001011110101 +
1;
#2425
0;
#2428
#2430
b00000000000000000000001011110100 +
1;
#2435
0;
#2438
#2440
b00000000000000000000001011110011 +
1;
#2445
0;
#2448
#2450
b00000000000000000000001011110010 +
1;
#2455
0;
#2458
#2460
b00000000000000000000001011110001 +
1;
#2465
0;
#2468
#2470
b00000000000000000000001011110000 +
1;
#2475
0;
#2478
#2480
b00000000000000000000001011101111 +
1;
#2485
0;
#2488
#2490
b00000000000000000000001011101110 +
1;
#2495
0;
#2498
#2500
b00000000000000000000001011101101 +
1;
#2505
0;
#2508
#2510
b00000000000000000000001011101100 +
1;
#2515
0;
#2518
#2520
b00000000000000000000001011101011 +
1;
#2525
0;
#2528
#2530
b00000000000000000000001011101010 +
1;
#2535
0;
#2538
#2540
b00000000000000000000001011101001 +
1;
#2545
0;
#2548
#2550
b00000000000000000000001011101000 +
1;
#2555
0;
#2558
#2560
b00000000000000000000001011100111 +
1;
#2565
0;
#2568
#2570
b00000000000000000000001011100110 +
1;
#2575
0;
#2578
#2580
b00000000000000000000001011100101 +
1;
#2585
0;
#2588
#2590
b00000000000000000000001011100100 +
1;
#2595
0;
#2598
#2600
b00000000000000000000001011100011 +
1;
#2605
0;
#2608
#2610
b00000000000000000000001011100010 +
1;
#2615
0;
#2618
#2620
b00000000000000000000001011100001 +
1;
#2625
0;
#2628
#2630
b00000000000000000000001011100000 +
1;
#2635
0;
#2638
#2640
b00000000000000000000001011011111 +
1;
#2645
0;
#2648
#2650
b00000000000000000000001011011110 +
1;
#2655
0;
#2658
#2660
b00000000000000000000001011011101 +
1;
#2665
0;
#2668
#2670
b00000000000000000000001011011100 +
1;
#2675
0;
#2678
#2680
b00000000000000000000001011011011 +
1;
#2685
0;
#2688
#2690
b00000000000000000000001011011010 +
1;
#2695
0;
#2698
#2700
b00000000000000000000001011011001 +
1;
#2705
0;
#2708
#2710
b00000000000000000000001011011000 +
1;
#2715
0;
#2718
#2720
b00000000000000000000001011010111 +
1;
#2725
0;
#2728
#2730
b00000000000000000000001011010110 +
1;
#2735
0;
#2738
#2740
b00000000000000000000001011010101 +
1;
#2745
0;
#2748
#2750
b00000000000000000000001011010100 +
1;
#2755
0;
#2758
#2760
b00000000000000000000001011010011 +
1;
#2765
0;
#2768
#2770
b00000000000000000000001011010010 +
1;
#2775
0;
#2778
#2780
b00000000000000000000001011010001 +
1;
#2785
0;
#2788
#2790
b00000000000000000000001011010000 +
1;
#2795
0;
#2798
#2800
b00000000000000000000001011001111 +
1;
#2805
0;
#2808
#2810
b00000000000000000000001011001110 +
1;
#2815
0;
#2818
#2820
b00000000000000000000001011001101 +
1;
#2825
0;
#2828
#2830
b00000000000000000000001011001100 +
1;
#2835
0;
#2838
#2840
b00000000000000000000001011001011 +
1;
#2845
0;
#2848
#2850
b00000000000000000000001011001010 +
1;
#2855
0;
#2858
#2860
b00000000000000000000001011001001 +
1;
#2865
0;
#2868
#2870
b00000000000000000000001011001000 +
1;
#2875
0;
#2878
#2880
b00000000000000000000001011000111 +
1;
#2885
0;
#2888
#2890
b00000000000000000000001011000110 +
1;
#2895
0;
#2898
#2900
b00000000000000000000001011000101 +
1;
#2905
0;
#2908
#2910
b00000000000000000000001011000100 +
1;
#2915
0;
#2918
#2920
b00000000000000000000001011000011 +
1;
#2925
0;
#2928
#2930
b00000000000000000000001011000010 +
1;
#2935
0;
#2938
#2940
b00000000000000000000001011000001 +
1;
#2945
0;
#2948
#2950
b00000000000000000000001011000000 +
1;
#2955
0;
#2958
#2960
b00000000000000000000001010111111 +
1;
#2965
0;
#2968
#2970
b00000000000000000000001010111110 +
1;
#2975
0;
#2978
#2980
b00000000000000000000001010111101 +
1;
#2985
0;
#2988
#2990
b00000000000000000000001010111100 +
1;
#2995
0;
#2998
#3000
b00000000000000000000001010111011 +
1;
#3005
0;
#3008
#3010
b00000000000000000000001010111010 +
1;
#3015
0;
#3018
#3020
b00000000000000000000001010111001 +
1;
#3025
0;
#3028
#3030
b00000000000000000000001010111000 +
1;
#3035
0;
#3038
#3040
b00000000000000000000001010110111 +
1;
#3045
0;
#3048
#3050
b00000000000000000000001010110110 +
1;
#3055
0;
#3058
#3060
b00000000000000000000001010110101 +
1;
#3065
0;
#3068
#3070
b00000000000000000000001010110100 +
1;
#3075
0;
#3078
#3080
b00000000000000000000001010110011 +
1;
#3085
0;
#3088
#3090
b00000000000000000000001010110010 +
1;
#3095
0;
#3098
#3100
b00000000000000000000001010110001 +
1;
#3105
0;
#3108
#3110
b00000000000000000000001010110000 +
1;
#3115
0;
#3118
#3120
b00000000000000000000001010101111 +
1;
#3125
0;
#3128
#3130
b00000000000000000000001010101110 +
1;
#3135
0;
#3138
#3140
b00000000000000000000001010101101 +
1;
#3145
0;
#3148
#3150
b00000000000000000000001010101100 +
1;
#3155
0;
#3158
#3160
b00000000000000000000001010101011 +
1;
#3165
0;
#3168
#3170
b00000000000000000000001010101010 +
1;
#3175
0;
#3178
#3180
b00000000000000000000001010101001 +
1;
#3185
0;
#3188
#3190
b00000000000000000000001010101000 +
1;
#3195
0;
#3198
#3200
b00000000000000000000001010100111 +
1;
#3205
0;
#3208
#3210
b00000000000000000000001010100110 +
1;
#3215
0;
#3218
#3220
b00000000000000000000001010100101 +
1;
#3225
0;
#3228
#3230
b00000000000000000000001010100100 +
1;
#3235
0;
#3238
#3240
b00000000000000000000001010100011 +
1;
#3245
0;
#3248
#3250
b00000000000000000000001010100010 +
1;
#3255
0;
#3258
#3260
b00000000000000000000001010100001 +
1;
#3265
0;
#3268
#3270
b00000000000000000000001010100000 +
1;
#3275
0;
#3278
#3280
b00000000000000000000001010011111 +
1;
#3285
0;
#3288
#3290
b00000000000000000000001010011110 +
1;
#3295
0;
#3298
#3300
b00000000000000000000001010011101 +
1;
#3305
0;
#3308
#3310
b00000000000000000000001010011100 +
1;
#3315
0;
#3318
#3320
b00000000000000000000001010011011 +
1;
#3325
0;
#3328
#3330
b00000000000000000000001010011010 +
1;
#3335
0;
#3338
#3340
b00000000000000000000001010011001 +
1;
#3345
0;
#3348
#3350
b00000000000000000000001010011000 +
1;
#3355
0;
#3358
#3360
b00000000000000000000001010010111 +
1;
#3365
0;
#3368
#3370
b00000000000000000000001010010110 +
1;
#3375
0;
#3378
#3380
b00000000000000000000001010010101 +
1;
#3385
0;
#3388
#3390
b00000000000000000000001010010100 +
1;
#3395
0;
#3398
#3400
b00000000000000000000001010010011 +
1;
#3405
0;
#3408
#3410
b00000000000000000000001010010010 +
1;
#3415
0;
#3418
#3420
b00000000000000000000001010010001 +
1;
#3425
0;
#3428
#3430
b00000000000000000000001010010000 +
1;
#3435
0;
#3438
#3440
b00000000000000000000001010001111 +
1;
#3445
0;
#3448
#3450
b00000000000000000000001010001110 +
1;
#3455
0;
#3458
#3460
b00000000000000000000001010001101 +
1;
#3465
0;
#3468
#3470
b00000000000000000000001010001100 +
1;
#3475
0;
#3478
#3480
b00000000000000000000001010001011 +
1;
#3485
0;
#3488
#3490
b00000000000000000000001010001010 +
1;
#3495
0;
#3498
#3500
b00000000000000000000001010001001 +
1;
#3505
0;
#3508
#3510
b00000000000000000000001010001000 +
1;
#3515
0;
#3518
#3520
b00000000000000000000001010000111 +
1;
#3525
0;
#3528
#3530
b00000000000000000000001010000110 +
1;
#3535
0;
#3538
#3540
b00000000000000000000001010000101 +
1;
#3545
0;
#3548
#3550
b00000000000000000000001010000100 +
1;
#3555
0;
#3558
#3560
b00000000000000000000001010000011 +
1;
#3565
0;
#3568
#3570
b00000000000000000000001010000010 +
1;
#3575
0;
#3578
#3580
b00000000000000000000001010000001 +
1;
#3585
0;
#3588
#3590
b00000000000000000000001010000000 +
1;
#3595
0;
#3598
#3600
b00000000000000000000001001111111 +
1;
#3605
0;
#3608
#3610
b00000000000000000000001001111110 +
1;
#3615
0;
#3618
#3620
b00000000000000000000001001111101 +
1;
#3625
0;
#3628
#3630
b00000000000000000000001001111100 +
1;
#3635
0;
#3638
#3640
b00000000000000000000001001111011 +
1;
#3645
0;
#3648
#3650
b00000000000000000000001001111010 +
1;
#3655
0;
#3658
#3660
b00000000000000000000001001111001 +
1;
#3665
0;
#3668
#3670
b00000000000000000000001001111000 +
1;
#3675
0;
#3678
#3680
b00000000000000000000001001110111 +
1;
#3685
0;
#3688
#3690
b00000000000000000000001001110110 +
1;
#3695
0;
#3698
#3700
b00000000000000000000001001110101 +
1;
#3705
0;
#3708
#3710
b00000000000000000000001001110100 +
1;
#3715
0;
#3718
#3720
b00000000000000000000001001110011 +
1;
#3725
0;
#3728
#3730
b00000000000000000000001001110010 +
1;
#3735
0;
#3738
#3740
b00000000000000000000001001110001 +
1;
#3745
0;
#3748
#3750
b00000000000000000000001001110000 +
1;
#3755
0;
#3758
#3760
b00000000000000000000001001101111 +
1;
#3765
0;
#3768
#3770
b00000000000000000000001001101110 +
1;
#3775
0;
#3778
#3780
b00000000000000000000001001101101 +
1;
#3785
0;
#3788
#3790
b00000000000000000000001001101100 +
1;
#3795
0;
#3798
#3800
b00000000000000000000001001101011 +
1;
#3805
0;
#3808
#3810
b00000000000000000000001001101010 +
1;
#3815
0;
#3818
#3820
b00000000000000000000001001101001 +
1;
#3825
0;
#3828
#3830
b00000000000000000000001001101000 +
1;
#3835
0;
#3838
#3840
b00000000000000000000001001100111 +
1;
#3845
0;
#3848
#3850
b00000000000000000000001001100110 +
1;
#3855
0;
#3858
#3860
b00000000000000000000001001100101 +
1;
#3865
0;
#3868
#3870
b00000000000000000000001001100100 +
1;
#3875
0;
#3878
#3880
b00000000000000000000001001100011 +
1;
#3885
0;
#3888
#3890
b00000000000000000000001001100010 +
1;
#3895
0;
#3898
#3900
b00000000000000000000001001100001 +
1;
#3905
0;
#3908
#3910
b00000000000000000000001001100000 +
1;
#3915
0;
#3918
#3920
b00000000000000000000001001011111 +
1;
#3925
0;
#3928
#3930
b00000000000000000000001001011110 +
1;
#3935
0;
#3938
#3940
b00000000000000000000001001011101 +
1;
#3945
0;
#3948
#3950
b00000000000000000000001001011100 +
1;
#3955
0;
#3958
#3960
b00000000000000000000001001011011 +
1;
#3965
0;
#3968
#3970
b00000000000000000000001001011010 +
1;
#3975
0;
#3978
#3980
b00000000000000000000001001011001 +
1;
#3985
0;
#3988
#3990
b00000000000000000000001001011000 +
1;
#3995
0;
#3998
#4000
b00000000000000000000001001010111 +
1;
#4005
0;
#4008
#4010
b00000000000000000000001001010110 +
1;
#4015
0;
#4018
#4020
b00000000000000000000001001010101 +
1;
#4025
0;
#4028
#4030
b00000000000000000000001001010100 +
1;
#4035
0;
#4038
#4040
b00000000000000000000001001010011 +
1;
#4045
0;
#4048
#4050
b00000000000000000000001001010010 +
1;
#4055
0;
#4058
#4060
b00000000000000000000001001010001 +
1;
#4065
0;
#4068
#4070
b00000000000000000000001001010000 +
1;
#4075
0;
#4078
#4080
b00000000000000000000001001001111 +
1;
#4085
0;
#4088
#4090
b00000000000000000000001001001110 +
1;
#4095
0;
#4098
#4100
b00000000000000000000001001001101 +
1;
#4105
0;
#4108
#4110
b00000000000000000000001001001100 +
1;
#4115
0;
#4118
#4120
b00000000000000000000001001001011 +
1;
#4125
0;
#4128
#4130
b00000000000000000000001001001010 +
1;
#4135
0;
#4138
#4140
b00000000000000000000001001001001 +
1;
#4145
0;
#4148
#4150
b00000000000000000000001001001000 +
1;
#4155
0;
#4158
#4160
b00000000000000000000001001000111 +
1;
#4165
0;
#4168
#4170
b00000000000000000000001001000110 +
1;
#4175
0;
#4178
#4180
b00000000000000000000001001000101 +
1;
#4185
0;
#4188
#4190
b00000000000000000000001001000100 +
1;
#4195
0;
#4198
#4200
b00000000000000000000001001000011 +
1;
#4205
0;
#4208
#4210
b00000000000000000000001001000010 +
1;
#4215
0;
#4218
#4220
b00000000000000000000001001000001 +
1;
#4225
0;
#4228
#4230
b00000000000000000000001001000000 +
1;
#4235
0;
#4238
#4240
b00000000000000000000001000111111 +
1;
#4245
0;
#4248
#4250
b00000000000000000000001000111110 +
1;
#4255
0;
#4258
#4260
b00000000000000000000001000111101 +
1;
#4265
0;
#4268
#4270
b00000000000000000000001000111100 +
1;
#4275
0;
#4278
#4280
b00000000000000000000001000111011 +
1;
#4285
0;
#4288
#4290
b00000000000000000000001000111010 +
1;
#4295
0;
#4298
#4300
b00000000000000000000001000111001 +
1;
#4305
0;
#4308
#4310
b00000000000000000000001000111000 +
1;
#4315
0;
#4318
#4320
b00000000000000000000001000110111 +
1;
#4325
0;
#4328
#4330
b00000000000000000000001000110110 +
1;
#4335
0;
#4338
#4340
b00000000000000000000001000110101 +
1;
#4345
0;
#4348
#4350
b00000000000000000000001000110100 +
1;
#4355
0;
#4358
#4360
b00000000000000000000001000110011 +
1;
#4365
0;
#4368
#4370
b00000000000000000000001000110010 +
1;
#4375
0;
#4378
#4380
b00000000000000000000001000110001 +
1;
#4385
0;
#4388
#4390
b00000000000000000000001000110000 +
1;
#4395
0;
#4398
#4400
b00000000000000000000001000101111 +
1;
#4405
0;
#4408
#4410
b00000000000000000000001000101110 +
1;
#4415
0;
#4418
#4420
b00000000000000000000001000101101 +
1;
#4425
0;
#4428
#4430
b00000000000000000000001000101100 +
1;
#4435
0;
#4438
#4440
b00000000000000000000001000101011 +
1;
#4445
0;
#4448
#4450
b00000000000000000000001000101010 +
1;
#4455
0;
#4458
#4460
b00000000000000000000001000101001 +
1;
#4465
0;
#4468
#4470
b00000000000000000000001000101000 +
1;
#4475
0;
#4478
#4480
b00000000000000000000001000100111 +
1;
#4485
0;
#4488
#4490
b00000000000000000000001000100110 +
1;
#4495
0;
#4498
#4500
b00000000000000000000001000100101 +
1;
#4505
0;
#4508
#4510
b00000000000000000000001000100100 +
1;
#4515
0;
#4518
#4520
b00000000000000000000001000100011 +
1;
#4525
0;
#4528
