Verilog_FormalVerification_Beginner/workspace/12LEDWalker/src/obj_dir/ledwalker.vcd
$version Generated by VerilatedVcd $end
$date Wed Nov 22 11:30:45 2023
 $end
$timescale   1ns $end

 $scope module TOP $end
  $var wire  1 + i_clk $end
  $var wire  8 3 o_led [7:0] $end
  $scope module ledwalker $end
   $var wire  1 + i_clk $end
   $var wire  4 # led_index [3:0] $end
   $var wire  8 3 o_led [7:0] $end
  $upscope $end
 $upscope $end
$enddefinitions $end


#8
b0000 #
0+
b00000000 3
#10
b0001 #
1+
b00000001 3
#15
0+
#18
#20
b0010 #
1+
b00000010 3
#25
0+
#28
#30
b0011 #
1+
b00000100 3
#35
0+
#38
#40
b0100 #
1+
b00001000 3
#45
0+
#48
#50
b0101 #
1+
b00010000 3
#55
0+
#58
#60
b0110 #
1+
b00100000 3
#65
0+
#68
#70
b0111 #
1+
b01000000 3
#75
0+
#78
#80
b1000 #
1+
b10000000 3
#85
0+
#88
#90
b1001 #
1+
b01000000 3
#95
0+
#98
#100
b1010 #
1+
b00100000 3
#105
0+
#108
#110
b1011 #
1+
b00010000 3
#115
0+
#118
#120
b1100 #
1+
b00001000 3
#125
0+
#128
#130
b1101 #
1+
b00000100 3
#135
0+
#138
#140
b1110 #
1+
b00000010 3
#145
0+
#148
#150
b0000 #
1+
b00000001 3
#155
0+
#158
#160
b0001 #
1+
#165
0+
#168
#170
b0010 #
1+
b00000010 3
#175
0+
#178
#180
b0011 #
1+
b00000100 3
#185
0+
#188
#190
b0100 #
1+
b00001000 3
#195
0+
#198
#200
b0101 #
1+
b00010000 3
#205
0+
#208
#210
b0110 #
1+
b00100000 3
#215
0+
#218
#220
b0111 #
1+
b01000000 3
#225
0+
#228
#230
b1000 #
1+
b10000000 3
#235
0+
#238
#240
b1001 #
1+
b01000000 3
#245
0+
#248
#250
b1010 #
1+
b00100000 3
#255
0+
#258
#260
b1011 #
1+
b00010000 3
#265
0+
#268
#270
b1100 #
1+
b00001000 3
#275
0+
#278
#280
b1101 #
1+
b00000100 3
#285
0+
#288
#290
b1110 #
1+
b00000010 3
#295
0+
#298
#300
b0000 #
1+
b00000001 3
#305
0+
#308
#310
b0001 #
1+
#315
0+
#318
#320
b0010 #
1+
b00000010 3
#325
0+
#328
#330
b0011 #
1+
b00000100 3
#335
0+
#338
#340
b0100 #
1+
b00001000 3
#345
0+
#348
#350
b0101 #
1+
b00010000 3
#355
0+
#358
#360
b0110 #
1+
b00100000 3
#365
0+
#368
#370
b0111 #
1+
b01000000 3
#375
0+
#378
#380
b1000 #
1+
b10000000 3
#385
0+
#388
#390
b1001 #
1+
b01000000 3
#395
0+
#398
#400
b1010 #
1+
b00100000 3
#405
0+
#408
#410
b1011 #
1+
b00010000 3
#415
0+
#418
#420
b1100 #
1+
b00001000 3
#425
0+
#428
#430
b1101 #
1+
b00000100 3
#435
0+
#438
#440
b1110 #
1+
b00000010 3
#445
0+
#448
#450
b0000 #
1+
b00000001 3
#455
0+
#458
#460
b0001 #
1+
#465
0+
#468
#470
b0010 #
1+
b00000010 3
#475
0+
#478
#480
b0011 #
1+
b00000100 3
#485
0+
#488
#490
b0100 #
1+
b00001000 3
#495
0+
#498
#500
b0101 #
1+
b00010000 3
#505
0+
#508
#510
b0110 #
1+
b00100000 3
#515
0+
#518
#520
b0111 #
1+
b01000000 3
#525
0+
#528
#530
b1000 #
1+
b10000000 3
#535
0+
#538
#540
b1001 #
1+
b01000000 3
#545
0+
#548
#550
b1010 #
1+
b00100000 3
#555
0+
#558
#560
b1011 #
1+
b00010000 3
#565
0+
#568
#570
b1100 #
1+
b00001000 3
#575
0+
#578
#580
b1101 #
1+
b00000100 3
#585
0+
#588
#590
b1110 #
1+
b00000010 3
#595
0+
#598
#600
b0000 #
1+
b00000001 3
#605
0+
#608
#610
b0001 #
1+
#615
0+
#618
#620
b0010 #
1+
b00000010 3
#625
0+
#628
#630
b0011 #
1+
b00000100 3
#635
0+
#638
#640
b0100 #
1+
b00001000 3
#645
0+
#648
#650
b0101 #
1+
b00010000 3
#655
0+
#658
#660
b0110 #
1+
b00100000 3
#665
0+
#668
#670
b0111 #
1+
b01000000 3
#675
0+
#678
#680
b1000 #
1+
b10000000 3
#685
0+
#688
#690
b1001 #
1+
b01000000 3
#695
0+
#698
#700
b1010 #
1+
b00100000 3
#705
0+
#708
#710
b1011 #
1+
b00010000 3
#715
0+
#718
#720
b1100 #
1+
b00001000 3
#725
0+
#728
#730
b1101 #
1+
b00000100 3
#735
0+
#738
#740
b1110 #
1+
b00000010 3
#745
0+
#748
#750
b0000 #
1+
b00000001 3
#755
0+
#758
#760
b0001 #
1+
#765
0+
#768
#770
b0010 #
1+
b00000010 3
#775
0+
#778
#780
b0011 #
1+
b00000100 3
#785
0+
#788
#790
b0100 #
1+
b00001000 3
#795
0+
#798
#800
b0101 #
1+
b00010000 3
#805
0+
#808
#810
b0110 #
1+
b00100000 3
#815
0+
#818
#820
b0111 #
1+
b01000000 3
#825
0+
#828
#830
b1000 #
1+
b10000000 3
#835
0+
#838
#840
b1001 #
1+
b01000000 3
#845
0+
#848
#850
b1010 #
1+
b00100000 3
#855
0+
#858
#860
b1011 #
1+
b00010000 3
#865
0+
#868
#870
b1100 #
1+
b00001000 3
#875
0+
#878
#880
b1101 #
1+
b00000100 3
#885
0+
#888
#890
b1110 #
1+
b00000010 3
#895
0+
#898
#900
b0000 #
1+
b00000001 3
#905
0+
#908
#910
b0001 #
1+
#915
0+
#918
#920
b0010 #
1+
b00000010 3
#925
0+
#928
#930
b0011 #
1+
b00000100 3
#935
0+
#938
#940
b0100 #
1+
b00001000 3
#945
0+
#948
#950
b0101 #
1+
b00010000 3
#955
0+
#958
#960
b0110 #
1+
b00100000 3
#965
0+
#968
#970
b0111 #
1+
b01000000 3
#975
0+
#978
#980
b1000 #
1+
b10000000 3
#985
0+
#988
#990
b1001 #
1+
b01000000 3
#995
0+
#998
#1000
b1010 #
1+
b00100000 3
#1005
0+
#1008
#1010
b1011 #
1+
b00010000 3
#1015
0+
#1018
#1020
b1100 #
1+
b00001000 3
#1025
0+
#1028
#1030
b1101 #
1+
b00000100 3
#1035
0+
#1038
#1040
b1110 #
1+
b00000010 3
#1045
0+
#1048
#1050
b0000 #
1+
b00000001 3
#1055
0+
#1058
#1060
b0001 #
1+
#1065
0+
#1068
#1070
b0010 #
1+
b00000010 3
#1075
0+
#1078
#1080
b0011 #
1+
b00000100 3
#1085
0+
#1088
#1090
b0100 #
1+
b00001000 3
#1095
0+
#1098
#1100
b0101 #
1+
b00010000 3
#1105
0+
#1108
#1110
b0110 #
1+
b00100000 3
#1115
0+
#1118
#1120
b0111 #
1+
b01000000 3
#1125
0+
#1128
#1130
b1000 #
1+
b10000000 3
#1135
0+
#1138
#1140
b1001 #
1+
b01000000 3
#1145
0+
#1148
#1150
b1010 #
1+
b00100000 3
#1155
0+
#1158
#1160
b1011 #
1+
b00010000 3
#1165
0+
#1168
#1170
b1100 #
1+
b00001000 3
#1175
0+
#1178
#1180
b1101 #
1+
b00000100 3
#1185
0+
#1188
#1190
b1110 #
1+
b00000010 3
#1195
0+
#1198
#1200
b0000 #
1+
b00000001 3
#1205
0+
#1208
#1210
b0001 #
1+
#1215
0+
#1218
#1220
b0010 #
1+
b00000010 3
#1225
0+
#1228
#1230
b0011 #
1+
b00000100 3
#1235
0+
#1238
#1240
b0100 #
1+
b00001000 3
#1245
0+
#1248
#1250
b0101 #
1+
b00010000 3
#1255
0+
#1258
#1260
b0110 #
1+
b00100000 3
#1265
0+
#1268
#1270
b0111 #
1+
b01000000 3
#1275
0+
#1278
#1280
b1000 #
1+
b10000000 3
#1285
0+
#1288
#1290
b1001 #
1+
b01000000 3
#1295
0+
#1298
#1300
b1010 #
1+
b00100000 3
#1305
0+
#1308
#1310
b1011 #
1+
b00010000 3
#1315
0+
#1318
#1320
b1100 #
1+
b00001000 3
#1325
0+
#1328
#1330
b1101 #
1+
b00000100 3
#1335
0+
#1338
#1340
b1110 #
1+
b00000010 3
#1345
0+
#1348
#1350
b0000 #
1+
b00000001 3
#1355
0+
#1358
#1360
b0001 #
1+
#1365
0+
#1368
#1370
b0010 #
1+
b00000010 3
#1375
0+
#1378
#1380
b0011 #
1+
b00000100 3
#1385
0+
#1388
#1390
b0100 #
1+
b00001000 3
#1395
0+
#1398
#1400
b0101 #
1+
b00010000 3
#1405
0+
#1408
#1410
b0110 #
1+
b00100000 3
#1415
0+
#1418
#1420
b0111 #
1+
b01000000 3
#1425
0+
#1428
#1430
b1000 #
1+
b10000000 3
#1435
0+
#1438
#1440
b1001 #
1+
b01000000 3
#1445
0+
#1448
#1450
b1010 #
1+
b00100000 3
#1455
0+
#1458
#1460
b1011 #
1+
b00010000 3
#1465
0+
#1468
#1470
b1100 #
1+
b00001000 3
#1475
0+
#1478
#1480
b1101 #
1+
b00000100 3
#1485
0+
#1488
#1490
b1110 #
1+
b00000010 3
#1495
0+
#1498
#1500
b0000 #
1+
b00000001 3
#1505
0+
#1508
#1510
b0001 #
1+
#1515
0+
#1518
#1520
b0010 #
1+
b00000010 3
#1525
0+
#1528
#1530
b0011 #
1+
b00000100 3
#1535
0+
#1538
#1540
b0100 #
1+
b00001000 3
#1545
0+
#1548
#1550
b0101 #
1+
b00010000 3
#1555
0+
#1558
#1560
b0110 #
1+
b00100000 3
#1565
0+
#1568
#1570
b0111 #
1+
b01000000 3
#1575
0+
#1578
#1580
b1000 #
1+
b10000000 3
#1585
0+
#1588
#1590
b1001 #
1+
b01000000 3
#1595
0+
#1598
#1600
b1010 #
1+
b00100000 3
#1605
0+
#1608
#1610
b1011 #
1+
b00010000 3
#1615
0+
#1618
#1620
b1100 #
1+
b00001000 3
#1625
0+
#1628
#1630
b1101 #
1+
b00000100 3
#1635
0+
#1638
#1640
b1110 #
1+
b00000010 3
#1645
0+
#1648
#1650
b0000 #
1+
b00000001 3
#1655
0+
#1658
#1660
b0001 #
1+
#1665
0+
#1668
#1670
b0010 #
1+
b00000010 3
#1675
0+
#1678
#1680
b0011 #
1+
b00000100 3
#1685
0+
#1688
#1690
b0100 #
1+
b00001000 3
#1695
0+
#1698
#1700
b0101 #
1+
b00010000 3
#1705
0+
#1708
#1710
b0110 #
1+
b00100000 3
#1715
0+
#1718
#1720
b0111 #
1+
b01000000 3
#1725
0+
#1728
#1730
b1000 #
1+
b10000000 3
#1735
0+
#1738
#1740
b1001 #
1+
b01000000 3
#1745
0+
#1748
#1750
b1010 #
1+
b00100000 3
#1755
0+
#1758
#1760
b1011 #
1+
b00010000 3
#1765
0+
#1768
#1770
b1100 #
1+
b00001000 3
#1775
0+
#1778
#1780
b1101 #
1+
b00000100 3
#1785
0+
#1788
#1790
b1110 #
1+
b00000010 3
#1795
0+
#1798
#1800
b0000 #
1+
b00000001 3
#1805
0+
#1808
#1810
b0001 #
1+
#1815
0+
#1818
#1820
b0010 #
1+
b00000010 3
#1825
0+
#1828
#1830
b0011 #
1+
b00000100 3
#1835
0+
#1838
#1840
b0100 #
1+
b00001000 3
#1845
0+
#1848
#1850
b0101 #
1+
b00010000 3
#1855
0+
#1858
#1860
b0110 #
1+
b00100000 3
#1865
0+
#1868
#1870
b0111 #
1+
b01000000 3
#1875
0+
#1878
#1880
b1000 #
1+
b10000000 3
#1885
0+
#1888
#1890
b1001 #
1+
b01000000 3
#1895
0+
#1898
#1900
b1010 #
1+
b00100000 3
#1905
0+
#1908
#1910
b1011 #
1+
b00010000 3
#1915
0+
#1918
#1920
b1100 #
1+
b00001000 3
#1925
0+
#1928
#1930
b1101 #
1+
b00000100 3
#1935
0+
#1938
#1940
b1110 #
1+
b00000010 3
#1945
0+
#1948
#1950
b0000 #
1+
b00000001 3
#1955
0+
#1958
#1960
b0001 #
1+
#1965
0+
#1968
#1970
b0010 #
1+
b00000010 3
#1975
0+
#1978
#1980
b0011 #
1+
b00000100 3
#1985
0+
#1988
#1990
b0100 #
1+
b00001000 3
#1995
0+
#1998
#2000
b0101 #
1+
b00010000 3
#2005
0+
#2008
#2010
b0110 #
1+
b00100000 3
#2015
0+
#2018
#2020
b0111 #
1+
b01000000 3
#2025
0+
#2028
#2030
b1000 #
1+
b10000000 3
#2035
0+
#2038
#2040
b1001 #
1+
b01000000 3
#2045
0+
#2048
#2050
b1010 #
1+
b00100000 3
#2055
0+
#2058
#2060
b1011 #
1+
b00010000 3
#2065
0+
#2068
#2070
b1100 #
1+
b00001000 3
#2075
0+
#2078
#2080
b1101 #
1+
b00000100 3
#2085
0+
#2088
#2090
b1110 #
1+
b00000010 3
#2095
0+
#2098
#2100
b0000 #
1+
b00000001 3
#2105
0+
#2108
#2110
b0001 #
1+
#2115
0+
#2118
#2120
b0010 #
1+
b00000010 3
#2125
0+
#2128
#2130
b0011 #
1+
b00000100 3
#2135
0+
#2138
#2140
b0100 #
1+
b00001000 3
#2145
0+
#2148
#2150
b0101 #
1+
b00010000 3
#2155
0+
#2158
#2160
b0110 #
1+
b00100000 3
#2165
0+
#2168
#2170
b0111 #
1+
b01000000 3
#2175
0+
#2178
#2180
b1000 #
1+
b10000000 3
#2185
0+
#2188
#2190
b1001 #
1+
b01000000 3
#2195
0+
#2198
#2200
b1010 #
1+
b00100000 3
#2205
0+
#2208
#2210
b1011 #
1+
b00010000 3
#2215
0+
#2218
#2220
b1100 #
1+
b00001000 3
#2225
0+
#2228
#2230
b1101 #
1+
b00000100 3
#2235
0+
#2238
#2240
b1110 #
1+
b00000010 3
#2245
0+
#2248
#2250
b0000 #
1+
b00000001 3
#2255
0+
#2258
#2260
b0001 #
1+
#2265
0+
#2268
#2270
b0010 #
1+
b00000010 3
#2275
0+
#2278
#2280
b0011 #
1+
b00000100 3
#2285
0+
#2288
#2290
b0100 #
1+
b00001000 3
#2295
0+
#2298
#2300
b0101 #
1+
b00010000 3
#2305
0+
#2308
#2310
b0110 #
1+
b00100000 3
#2315
0+
#2318
#2320
b0111 #
1+
b01000000 3
#2325
0+
#2328
#2330
b1000 #
1+
b10000000 3
#2335
0+
#2338
#2340
b1001 #
1+
b01000000 3
#2345
0+
#2348
#2350
b1010 #
1+
b00100000 3
#2355
0+
#2358
#2360
b1011 #
1+
b00010000 3
#2365
0+
#2368
#2370
b1100 #
1+
b00001000 3
#2375
0+
#2378
#2380
b1101 #
1+
b00000100 3
#2385
0+
#2388
#2390
b1110 #
1+
b00000010 3
#2395
0+
#2398
#2400
b0000 #
1+
b00000001 3
#2405
0+
#2408
#2410
b0001 #
1+
#2415
0+
#2418
#2420
b0010 #
1+
b00000010 3
#2425
0+
#2428
#2430
b0011 #
1+
b00000100 3
#2435
0+
#2438
#2440
b0100 #
1+
b00001000 3
#2445
0+
#2448
#2450
b0101 #
1+
b00010000 3
#2455
0+
#2458
#2460
b0110 #
1+
b00100000 3
#2465
0+
#2468
#2470
b0111 #
1+
b01000000 3
#2475
0+
#2478
#2480
b1000 #
1+
b10000000 3
#2485
0+
#2488
#2490
b1001 #
1+
b01000000 3
#2495
0+
#2498
#2500
b1010 #
1+
b00100000 3
#2505
0+
#2508
#2510
b1011 #
1+
b00010000 3
#2515
0+
#2518
#2520
b1100 #
1+
b00001000 3
#2525
0+
#2528
#2530
b1101 #
1+
b00000100 3
#2535
0+
#2538
#2540
b1110 #
1+
b00000010 3
#2545
0+
#2548
#2550
b0000 #
1+
b00000001 3
#2555
0+
#2558
#2560
b0001 #
1+
#2565
0+
#2568
#2570
b0010 #
1+
b00000010 3
#2575
0+
#2578
#2580
b0011 #
1+
b00000100 3
#2585
0+
#2588
#2590
b0100 #
1+
b00001000 3
#2595
0+
#2598
#2600
b0101 #
1+
b00010000 3
#2605
0+
#2608
#2610
b0110 #
1+
b00100000 3
#2615
0+
#2618
#2620
b0111 #
1+
b01000000 3
#2625
0+
#2628
#2630
b1000 #
1+
b10000000 3
#2635
0+
#2638
#2640
b1001 #
1+
b01000000 3
#2645
0+
#2648
#2650
b1010 #
1+
b00100000 3
#2655
0+
#2658
#2660
b1011 #
1+
b00010000 3
#2665
0+
#2668
#2670
b1100 #
1+
b00001000 3
#2675
0+
#2678
#2680
b1101 #
1+
b00000100 3
#2685
0+
#2688
#2690
b1110 #
1+
b00000010 3
#2695
0+
#2698
#2700
b0000 #
1+
b00000001 3
#2705
0+
#2708
#2710
b0001 #
1+
#2715
0+
#2718
#2720
b0010 #
1+
b00000010 3
#2725
0+
#2728
#2730
b0011 #
1+
b00000100 3
#2735
0+
#2738
#2740
b0100 #
1+
b00001000 3
#2745
0+
#2748
#2750
b0101 #
1+
b00010000 3
#2755
0+
#2758
#2760
b0110 #
1+
b00100000 3
#2765
0+
#2768
#2770
b0111 #
1+
b01000000 3
#2775
0+
#2778
#2780
b1000 #
1+
b10000000 3
#2785
0+
#2788
#2790
b1001 #
1+
b01000000 3
#2795
0+
#2798
#2800
b1010 #
1+
b00100000 3
#2805
0+
#2808
#2810
b1011 #
1+
b00010000 3
#2815
0+
#2818
#2820
b1100 #
1+
b00001000 3
#2825
0+
#2828
#2830
b1101 #
1+
b00000100 3
#2835
0+
#2838
#2840
b1110 #
1+
b00000010 3
#2845
0+
#2848
#2850
b0000 #
1+
b00000001 3
#2855
0+
#2858
#2860
b0001 #
1+
#2865
0+
#2868
#2870
b0010 #
1+
b00000010 3
#2875
0+
#2878
#2880
b0011 #
1+
b00000100 3
#2885
0+
#2888
#2890
b0100 #
1+
b00001000 3
#2895
0+
#2898
#2900
b0101 #
1+
b00010000 3
#2905
0+
#2908
#2910
b0110 #
1+
b00100000 3
#2915
0+
#2918
#2920
b0111 #
1+
b01000000 3
#2925
0+
#2928
#2930
b1000 #
1+
b10000000 3
#2935
0+
#2938
#2940
b1001 #
1+
b01000000 3
#2945
0+
#2948
#2950
b1010 #
1+
b00100000 3
#2955
0+
#2958
#2960
b1011 #
1+
b00010000 3
#2965
0+
#2968
#2970
b1100 #
1+
b00001000 3
#2975
0+
#2978
#2980
b1101 #
1+
b00000100 3
#2985
0+
#2988
#2990
b1110 #
1+
b00000010 3
#2995
0+
#2998
#3000
b0000 #
1+
b00000001 3
#3005
0+
#3008
#3010
b0001 #
1+
#3015
0+
#3018
#3020
b0010 #
1+
b00000010 3
#3025
0+
#3028
#3030
b0011 #
1+
b00000100 3
#3035
0+
#3038
#3040
b0100 #
1+
b00001000 3
#3045
0+
#3048
#3050
b0101 #
1+
b00010000 3
#3055
0+
#3058
#3060
b0110 #
1+
b00100000 3
#3065
0+
#3068
#3070
b0111 #
1+
b01000000 3
#3075
0+
#3078
#3080
b1000 #
1+
b10000000 3
#3085
0+
#3088
#3090
b1001 #
1+
b01000000 3
#3095
0+
#3098
#3100
b1010 #
1+
b00100000 3
#3105
0+
#3108
#3110
b1011 #
1+
b00010000 3
#3115
0+
#3118
#3120
b1100 #
1+
b00001000 3
#3125
0+
#3128
#3130
b1101 #
1+
b00000100 3
#3135
0+
#3138
#3140
b1110 #
1+
b00000010 3
#3145
0+
#3148
#3150
b0000 #
1+
b00000001 3
#3155
0+
#3158
#3160
b0001 #
1+
#3165
0+
#3168
#3170
b0010 #
1+
b00000010 3
#3175
0+
#3178
#3180
b0011 #
1+
b00000100 3
#3185
0+
#3188
#3190
b0100 #
1+
b00001000 3
#3195
0+
#3198
#3200
b0101 #
1+
b00010000 3
#3205
0+
#3208
#3210
b0110 #
1+
b00100000 3
#3215
0+
#3218
#3220
b0111 #
1+
b01000000 3
#3225
0+
#3228
#3230
b1000 #
1+
b10000000 3
#3235
0+
#3238
#3240
b1001 #
1+
b01000000 3
#3245
0+
#3248
#3250
b1010 #
1+
b00100000 3
#3255
0+
#3258
#3260
b1011 #
1+
b00010000 3
#3265
0+
#3268
#3270
b1100 #
1+
b00001000 3
#3275
0+
#3278
#3280
b1101 #
1+
b00000100 3
#3285
0+
#3288
#3290
b1110 #
1+
b00000010 3
#3295
0+
#3298
#3300
b0000 #
1+
b00000001 3
#3305
0+
#3308
#3310
b0001 #
1+
#3315
0+
#3318
#3320
b0010 #
1+
b00000010 3
#3325
0+
#3328
#3330
b0011 #
1+
b00000100 3
#3335
0+
#3338
#3340
b0100 #
1+
b00001000 3
#3345
0+
#3348
#3350
b0101 #
1+
b00010000 3
#3355
0+
#3358
#3360
b0110 #
1+
b00100000 3
#3365
0+
#3368
#3370
b0111 #
1+
b01000000 3
#3375
0+
#3378
#3380
b1000 #
1+
b10000000 3
#3385
0+
#3388
#3390
b1001 #
1+
b01000000 3
#3395
0+
#3398
#3400
b1010 #
1+
b00100000 3
#3405
0+
#3408
#3410
b1011 #
1+
b00010000 3
#3415
0+
#3418
#3420
b1100 #
1+
b00001000 3
#3425
0+
#3428
#3430
b1101 #
1+
b00000100 3
#3435
0+
#3438
#3440
b1110 #
1+
b00000010 3
#3445
0+
#3448
#3450
b0000 #
1+
b00000001 3
#3455
0+
#3458
#3460
b0001 #
1+
#3465
0+
#3468
#3470
b0010 #
1+
b00000010 3
#3475
0+
#3478
#3480
b0011 #
1+
b00000100 3
#3485
0+
#3488
#3490
b0100 #
1+
b00001000 3
#3495
0+
#3498
#3500
b0101 #
1+
b00010000 3
#3505
0+
#3508
#3510
b0110 #
1+
b00100000 3
#3515
0+
#3518
#3520
b0111 #
1+
b01000000 3
#3525
0+
#3528
#3530
b1000 #
1+
b10000000 3
#3535
0+
#3538
#3540
b1001 #
1+
b01000000 3
#3545
0+
#3548
#3550
b1010 #
1+
b00100000 3
#3555
0+
#3558
#3560
b1011 #
1+
b00010000 3
#3565
0+
#3568
#3570
b1100 #
1+
b00001000 3
#3575
0+
#3578
#3580
b1101 #
1+
b00000100 3
#3585
0+
#3588
#3590
b1110 #
1+
b00000010 3
#3595
0+
#3598
#3600
b0000 #
1+
b00000001 3
#3605
0+
#3608
#3610
b0001 #
1+
#3615
0+
#3618
#3620
b0010 #
1+
b00000010 3
#3625
0+
#3628
#3630
b0011 #
1+
b00000100 3
#3635
0+
#3638
#3640
b0100 #
1+
b00001000 3
#3645
0+
#3648
#3650
b0101 #
1+
b00010000 3
#3655
0+
#3658
#3660
b0110 #
1+
b00100000 3
#3665
0+
#3668
#3670
b0111 #
1+
b01000000 3
#3675
0+
#3678
#3680
b1000 #
1+
b10000000 3
#3685
0+
#3688
#3690
b1001 #
1+
b01000000 3
#3695
0+
#3698
#3700
b1010 #
1+
b00100000 3
#3705
0+
#3708
#3710
b1011 #
1+
b00010000 3
#3715
0+
#3718
#3720
b1100 #
1+
b00001000 3
#3725
0+
#3728
#3730
b1101 #
1+
b00000100 3
#3735
0+
#3738
#3740
b1110 #
1+
b00000010 3
#3745
0+
#3748
#3750
b0000 #
1+
b00000001 3
#3755
0+
#3758
#3760
b0001 #
1+
#3765
0+
#3768
#3770
b0010 #
1+
b00000010 3
#3775
0+
#3778
#3780
b0011 #
1+
b00000100 3
#3785
0+
#3788
#3790
b0100 #
1+
b00001000 3
#3795
0+
#3798
#3800
b0101 #
1+
b00010000 3
#3805
0+
#3808
#3810
b0110 #
1+
b00100000 3
#3815
0+
#3818
#3820
b0111 #
1+
b01000000 3
#3825
0+
#3828
#3830
b1000 #
1+
b10000000 3
#3835
0+
#3838
#3840
b1001 #
1+
b01000000 3
#3845
0+
#3848
#3850
b1010 #
1+
b00100000 3
#3855
0+
#3858
#3860
b1011 #
1+
b00010000 3
#3865
0+
#3868
#3870
b1100 #
1+
b00001000 3
#3875
0+
#3878
#3880
b1101 #
1+
b00000100 3
#3885
0+
#3888
#3890
b1110 #
1+
b00000010 3
#3895
0+
#3898
#3900
b0000 #
1+
b00000001 3
#3905
0+
#3908
#3910
b0001 #
1+
#3915
0+
#3918
#3920
b0010 #
1+
b00000010 3
#3925
0+
#3928
#3930
b0011 #
1+
b00000100 3
#3935
0+
#3938
#3940
b0100 #
1+
b00001000 3
#3945
0+
#3948
#3950
b0101 #
1+
b00010000 3
#3955
0+
#3958
#3960
b0110 #
1+
b00100000 3
#3965
0+
#3968
#3970
b0111 #
1+
b01000000 3
#3975
0+
#3978
#3980
b1000 #
1+
b10000000 3
#3985
0+
#3988
#3990
b1001 #
1+
b01000000 3
#3995
0+
#3998
#4000
b1010 #
1+
b00100000 3
#4005
0+
#4008
#4010
b1011 #
1+
b00010000 3
#4015
0+
#4018
#4020
b1100 #
1+
b00001000 3
#4025
0+
#4028
#4030
b1101 #
1+
b00000100 3
#4035
0+
#4038
#4040
b1110 #
1+
b00000010 3
#4045
0+
#4048
#4050
b0000 #
1+
b00000001 3
#4055
0+
#4058
#4060
b0001 #
1+
#4065
0+
#4068
#4070
b0010 #
1+
b00000010 3
#4075
0+
#4078
#4080
b0011 #
1+
b00000100 3
#4085
0+
#4088
#4090
b0100 #
1+
b00001000 3
#4095
0+
#4098
#4100
b0101 #
1+
b00010000 3
#4105
0+
#4108
#4110
b0110 #
1+
b00100000 3
#4115
0+
#4118
#4120
b0111 #
1+
b01000000 3
#4125
0+
#4128
#4130
b1000 #
1+
b10000000 3
#4135
0+
#4138
#4140
b1001 #
1+
b01000000 3
#4145
0+
#4148
#4150
b1010 #
1+
b00100000 3
#4155
0+
#4158
#4160
b1011 #
1+
b00010000 3
#4165
0+
#4168
#4170
b1100 #
1+
b00001000 3
#4175
0+
#4178
#4180
b1101 #
1+
b00000100 3
#4185
0+
#4188
#4190
b1110 #
1+
b00000010 3
#4195
0+
#4198
#4200
b0000 #
1+
b00000001 3
#4205
0+
#4208
#4210
b0001 #
1+
#4215
0+
#4218
#4220
b0010 #
1+
b00000010 3
#4225
0+
#4228
#4230
b0011 #
1+
b00000100 3
#4235
0+
#4238
#4240
b0100 #
1+
b00001000 3
#4245
0+
#4248
#4250
b0101 #
1+
b00010000 3
#4255
0+
#4258
#4260
b0110 #
1+
b00100000 3
#4265
0+
#4268
#4270
b0111 #
1+
b01000000 3
#4275
0+
#4278
#4280
b1000 #
1+
b10000000 3
#4285
0+
#4288
#4290
b1001 #
1+
b01000000 3
#4295
0+
#4298
#4300
b1010 #
1+
b00100000 3
#4305
0+
#4308
#4310
b1011 #
1+
b00010000 3
#4315
0+
#4318
#4320
b1100 #
1+
b00001000 3
#4325
0+
#4328
#4330
b1101 #
1+
b00000100 3
#4335
0+
#4338
#4340
b1110 #
1+
b00000010 3
#4345
0+
#4348
#4350
b0000 #
1+
b00000001 3
#4355
0+
#4358
#4360
b0001 #
1+
#4365
0+
#4368
#4370
b0010 #
1+
b00000010 3
#4375
0+
#4378
#4380
b0011 #
1+
b00000100 3
#4385
0+
#4388
#4390
b0100 #
1+
b00001000 3
#4395
0+
#4398
#4400
b0101 #
1+
b00010000 3
#4405
0+
#4408
#4410
b0110 #
1+
b00100000 3
#4415
0+
#4418
#4420
b0111 #
1+
b01000000 3
#4425
0+
#4428
#4430
b1000 #
1+
b10000000 3
#4435
0+
#4438
#4440
b1001 #
1+
b01000000 3
#4445
0+
#4448
#4450
b1010 #
1+
b00100000 3
#4455
0+
#4458
#4460
b1011 #
1+
b00010000 3
#4465
0+
#4468
#4470
b1100 #
1+
b00001000 3
#4475
0+
#4478
#4480
b1101 #
1+
b00000100 3
#4485
0+
#4488
#4490
b1110 #
1+
b00000010 3
#4495
0+
#4498
#4500
b0000 #
1+
b00000001 3
#4505
0+
#4508
#4510
b0001 #
1+
#4515
0+
#4518
#4520
b0010 #
1+
b00000010 3
#4525
0+
#4528
#4530
b0011 #
1+
b00000100 3
#4535
0+
#4538
#4540
b0100 #
1+
b00001000 3
#4545
0+
#4548
#4550
b0101 #
1+
b00010000 3
#4555
0+
#4558
#4560
b0110 #
1+
b00100000 3
#4565
0+
#4568
#4570
b0111 #
1+
b01000000 3
#4575
0+
#4578
#4580
b1000 #
1+
b10000000 3
#4585
0+
#4588
#4590
b1001 #
1+
b01000000 3
#4595
0+
#4598
#4600
b1010 #
1+
b00100000 3
#4605
0+
#4608
#4610
b1011 #
1+
b00010000 3
#4615
0+
#4618
#4620
b1100 #
1+
b00001000 3
#4625
0+
#4628
#4630
b1101 #
1+
b00000100 3
#4635
0+
#4638
#4640
b1110 #
1+
b00000010 3
#4645
0+
#4648
#4650
b0000 #
1+
b00000001 3
#4655
0+
#4658
#4660
b0001 #
1+
#4665
0+
#4668
#4670
b0010 #
1+
b00000010 3
#4675
0+
#4678
#4680
b0011 #
1+
b00000100 3
#4685
0+
#4688
#4690
b0100 #
1+
b00001000 3
#4695
0+
#4698
#4700
b0101 #
1+
b00010000 3
#4705
0+
#4708
#4710
b0110 #
1+
b00100000 3
#4715
0+
#4718
#4720
b0111 #
1+
b01000000 3
#4725
0+
#4728
#4730
b1000 #
1+
b10000000 3
#4735
0+
#4738
#4740
b1001 #
1+
b01000000 3
#4745
0+
#4748
#4750
b1010 #
1+
b00100000 3
#4755
0+
#4758
#4760
b1011 #
1+
b00010000 3
#4765
0+
#4768
#4770
b1100 #
1+
b00001000 3
#4775
0+
#4778
#4780
b1101 #
1+
b00000100 3
#4785
0+
#4788
#4790
b1110 #
1+
b00000010 3
#4795
0+
#4798
#4800
b0000 #
1+
b00000001 3
#4805
0+
#4808
#4810
b0001 #
1+
#4815
0+
#4818
#4820
b0010 #
1+
b00000010 3
#4825
0+
#4828
#4830
b0011 #
1+
b00000100 3
#4835
0+
#4838
#4840
b0100 #
1+
b00001000 3
#4845
0+
#4848
#4850
b0101 #
1+
b00010000 3
#4855
0+
#4858
#4860
b0110 #
1+
b00100000 3
#4865
0+
#4868
#4870
b0111 #
1+
b01000000 3
#4875
0+
#4878
#4880
b1000 #
1+
b10000000 3
#4885
0+
#4888
#4890
b1001 #
1+
b01000000 3
#4895
0+
#4898
#4900
b1010 #
1+
b00100000 3
#4905
0+
#4908
#4910
b1011 #
1+
b00010000 3
#4915
0+
#4918
#4920
b1100 #
1+
b00001000 3
#4925
0+
#4928
