Verilog_FormalVerification_Beginner/workspace/13ReqWalker/src/obj_dir/reqwalker.vcd
$version Generated by VerilatedVcd $end
$date Wed Apr 10 15:58:53 2024
 $end
$timescale   1ns $end

 $scope module TOP $end
  $var wire  1 S i_addr $end
  $var wire  1 3 i_clk $end
  $var wire  1 ; i_cyc $end
  $var wire 32 [ i_data [31:0] $end
  $var wire  1 C i_stb $end
  $var wire  1 K i_we $end
  $var wire  1 k o_ack $end
  $var wire 32 s o_data [31:0] $end
  $var wire  6 { o_led [5:0] $end
  $var wire  1 c o_stall $end
  $scope module reqwalker $end
   $var wire  1 # busy $end
   $var wire  1 S i_addr $end
   $var wire  1 3 i_clk $end
   $var wire  1 ; i_cyc $end
   $var wire 32 [ i_data [31:0] $end
   $var wire  1 C i_stb $end
   $var wire  1 K i_we $end
   $var wire  1 k o_ack $end
   $var wire 32 s o_data [31:0] $end
   $var wire  6 { o_led [5:0] $end
   $var wire  1 c o_stall $end
   $var wire  4 + state [3:0] $end
   $var wire 34 %! unused [33:0] $end
  $upscope $end
 $upscope $end
$enddefinitions $end


#8
0#
b0000 +
03
1;
1C
0K
0S
b00000000000000000000000000000000 [
0c
0k
b00000000000000000000000000000000 s
b000000 {
b1000000000000000000000000000000000 %!
#10
13
1k
#15
03
#18
0;
0C
b0000000000000000000000000000000000 %!
#20
13
0k
#25
03
#28
#30
13
#35
03
#38
#40
13
#45
03
#48
#50
13
#55
03
#58
#60
13
#65
03
#68
1;
1C
1K
b1000000000000000000000000000000000 %!
#70
1#
b0001 +
13
1c
1k
b00000000000000000000000000000001 s
b000001 {
#75
03
#78
0;
0C
b0000000000000000000000000000000000 %!
#80
b0010 +
13
0k
b00000000000000000000000000000010 s
b000010 {
#85
03
#88
1;
1C
0K
0c
b1000000000000000000000000000000000 %!
#90
b0011 +
13
1k
b00000000000000000000000000000011 s
b000100 {
#95
03
#98
0;
0C
b0000000000000000000000000000000000 %!
#100
b0100 +
13
0k
b00000000000000000000000000000100 s
b001000 {
#105
03
#108
1;
1C
b1000000000000000000000000000000000 %!
#110
b0101 +
13
1k
b00000000000000000000000000000101 s
b010000 {
#115
03
#118
0;
0C
b0000000000000000000000000000000000 %!
#120
b0110 +
13
0k
b00000000000000000000000000000110 s
b100000 {
#125
03
#128
1;
1C
b1000000000000000000000000000000000 %!
#130
b0111 +
13
1k
b00000000000000000000000000000111 s
b010000 {
#135
03
#138
0;
0C
b0000000000000000000000000000000000 %!
#140
b1000 +
13
0k
b00000000000000000000000000001000 s
b001000 {
#145
03
#148
1;
1C
b1000000000000000000000000000000000 %!
#150
b1001 +
13
1k
b00000000000000000000000000001001 s
b000100 {
#155
03
#158
0;
0C
b0000000000000000000000000000000000 %!
#160
b1010 +
13
0k
b00000000000000000000000000001010 s
b000010 {
#165
03
#168
1;
1C
b1000000000000000000000000000000000 %!
#170
b1011 +
13
1k
b00000000000000000000000000001011 s
b000001 {
#175
03
#178
0;
0C
b0000000000000000000000000000000000 %!
#180
0#
b0000 +
13
0k
b00000000000000000000000000000000 s
#185
03
#188
1;
1C
b1000000000000000000000000000000000 %!
#190
13
1k
#195
03
#198
0;
0C
b0000000000000000000000000000000000 %!
#200
13
0k
#205
03
#208
#210
13
#215
03
#218
#220
13
#225
03
#228
#230
13
#235
03
#238
#240
13
#245
03
#248
1;
1C
1K
b1000000000000000000000000000000000 %!
#250
1#
b0001 +
13
1c
1k
b00000000000000000000000000000001 s
#255
03
#258
0;
0C
b0000000000000000000000000000000000 %!
#260
b0010 +
13
0k
b00000000000000000000000000000010 s
b000010 {
#265
03
#268
1;
1C
0K
0c
b1000000000000000000000000000000000 %!
#270
b0011 +
13
1k
b00000000000000000000000000000011 s
b000100 {
#275
03
#278
0;
0C
b0000000000000000000000000000000000 %!
#280
b0100 +
13
0k
b00000000000000000000000000000100 s
b001000 {
#285
03
#288
1;
1C
b1000000000000000000000000000000000 %!
#290
b0101 +
13
1k
b00000000000000000000000000000101 s
b010000 {
#295
03
#298
0;
0C
b0000000000000000000000000000000000 %!
#300
b0110 +
13
0k
b00000000000000000000000000000110 s
b100000 {
#305
03
#308
1;
1C
b1000000000000000000000000000000000 %!
#310
b0111 +
13
1k
b00000000000000000000000000000111 s
b010000 {
#315
03
#318
0;
0C
b0000000000000000000000000000000000 %!
#320
b1000 +
13
0k
b00000000000000000000000000001000 s
b001000 {
#325
03
#328
1;
1C
b1000000000000000000000000000000000 %!
#330
b1001 +
13
1k
b00000000000000000000000000001001 s
b000100 {
#335
03
#338
0;
0C
b0000000000000000000000000000000000 %!
#340
b1010 +
13
0k
b00000000000000000000000000001010 s
b000010 {
#345
03
#348
1;
1C
b1000000000000000000000000000000000 %!
#350
b1011 +
13
1k
b00000000000000000000000000001011 s
b000001 {
#355
03
#358
0;
0C
b0000000000000000000000000000000000 %!
#360
0#
b0000 +
13
0k
b00000000000000000000000000000000 s
#365
03
#368
1;
1C
b1000000000000000000000000000000000 %!
#370
13
1k
