Verilog_FormalVerification_Beginner/workspace/13ReqWalker/src/reqwalker_cvr/engine_0/trace0.vcd
$version Generated by Yosys-SMTBMC $end
$timescale 1ns $end
$var integer 32 t smt_step $end
$var event 1 ! smt_clock $end
$scope module reqwalker $end
$scope module _witness_ $end
$var wire 1 n0 anyinit_procdff_643 $end
$var wire 1 n1 anyinit_procdff_644 $end
$var wire 1 n2 anyinit_procdff_646 $end
$var wire 1 n3 anyinit_procdff_647 $end
$var wire 1 n4 anyinit_procdff_648 $end
$var wire 1 n5 anyinit_procdff_650 $end
$var wire 1 n6 anyinit_procdff_651 $end
$var wire 1 n7 anyinit_procdff_652 $end
$var wire 1 n8 anyinit_procdff_653 $end
$var wire 32 n9 anyinit_procdff_654 $end
$var wire 1 n10 anyinit_procdff_663 $end
$var wire 1 n11 anyinit_procdff_666 $end
$var wire 1 n12 anyinit_procdff_667 $end
$var wire 1 n13 anyinit_procdff_669 $end
$var wire 1 n14 anyinit_procdff_670 $end
$var wire 4 n15 anyinit_procdff_671 $end
$var wire 1 n16 anyinit_procdff_672 $end
$var wire 1 n17 anyinit_procdff_674 $end
$var wire 1 n18 anyinit_procdff_675 $end
$var wire 1 n19 anyinit_procdff_676 $end
$var wire 1 n20 anyinit_procdff_677 $end
$var wire 1 n21 anyinit_procdff_679 $end
$var wire 1 n22 anyinit_procdff_681 $end
$var wire 1 n23 anyinit_procdff_682 $end
$var wire 1 n24 anyinit_procdff_683 $end
$var wire 1 n25 anyinit_procdff_685 $end
$var wire 1 n26 anyinit_procdff_686 $end
$var wire 1 n27 anyinit_procdff_687 $end
$var wire 1 n28 anyinit_procdff_688 $end
$var wire 32 n29 anyinit_procdff_689 $end
$var wire 1 n30 anyinit_procdff_698 $end
$var wire 1 n31 anyseq_auto_setundef_cc_533_execute_718 $end
$var wire 1 n32 anyseq_auto_setundef_cc_533_execute_720 $end
$var wire 1 n33 anyseq_auto_setundef_cc_533_execute_722 $end
$var wire 1 n34 anyseq_auto_setundef_cc_533_execute_724 $end
$var wire 1 n35 anyseq_auto_setundef_cc_533_execute_726 $end
$var wire 1 n36 anyseq_auto_setundef_cc_533_execute_728 $end
$var wire 1 n37 anyseq_auto_setundef_cc_533_execute_730 $end
$var wire 1 n38 anyseq_auto_setundef_cc_533_execute_732 $end
$var wire 1 n39 anyseq_auto_setundef_cc_533_execute_734 $end
$var wire 1 n40 anyseq_auto_setundef_cc_533_execute_736 $end
$var wire 1 n41 anyseq_auto_setundef_cc_533_execute_738 $end
$var wire 1 n42 anyseq_auto_setundef_cc_533_execute_740 $end
$var wire 1 n43 anyseq_auto_setundef_cc_533_execute_742 $end
$var wire 1 n44 anyseq_auto_setundef_cc_533_execute_744 $end
$var wire 1 n45 anyseq_auto_setundef_cc_533_execute_746 $end
$var wire 1 n46 anyseq_auto_setundef_cc_533_execute_748 $end
$var wire 1 n47 anyseq_auto_setundef_cc_533_execute_750 $end
$var wire 1 n48 anyseq_auto_setundef_cc_533_execute_752 $end
$var wire 1 n49 anyseq_auto_setundef_cc_533_execute_754 $end
$var wire 1 n50 anyseq_auto_setundef_cc_533_execute_756 $end
$var wire 1 n51 anyseq_auto_setundef_cc_533_execute_758 $end
$var wire 1 n52 anyseq_auto_setundef_cc_533_execute_760 $end
$var wire 1 n53 anyseq_auto_setundef_cc_533_execute_762 $end
$var wire 1 n54 anyseq_auto_setundef_cc_533_execute_764 $end
$var wire 1 n55 anyseq_auto_setundef_cc_533_execute_766 $end
$var wire 1 n56 anyseq_auto_setundef_cc_533_execute_768 $end
$var wire 1 n57 anyseq_auto_setundef_cc_533_execute_770 $end
$var wire 1 n58 anyseq_auto_setundef_cc_533_execute_772 $end
$var wire 1 n59 anyseq_auto_setundef_cc_533_execute_774 $end
$var wire 1 n60 anyseq_auto_setundef_cc_533_execute_776 $end
$var wire 1 n61 anyseq_auto_setundef_cc_533_execute_778 $end
$upscope $end
$var wire 1 n62 busy $end
$var wire 1 n63 f_past_valid $end
$var wire 1 n64 i_addr $end
$var wire 1 n65 i_clk $end
$var wire 1 n66 i_cyc $end
$var wire 32 n67 i_data $end
$var wire 1 n68 i_stb $end
$var wire 1 n69 i_we $end
$var wire 1 n70 o_ack $end
$var wire 32 n71 o_data $end
$var wire 6 n72 o_led $end
$var wire 1 n73 o_stall $end
$var wire 4 n74 state $end
$var wire 34 n75 unused $end
$upscope $end
$enddefinitions $end
#0
1!
b00000000000000000000000000000000 t
b1 n65
b0 n0
b0 n1
b0 n2
b0 n3
b0 n4
b0 n5
b0 n6
b1 n7
b1 n8
b10000000000000000000000000000000 n9
b0 n10
b0 n11
b0 n12
b0 n13
b0 n14
b0000 n15
b0 n16
b0 n17
b0 n18
b0 n19
b0 n20
b0 n21
b0 n22
b0 n23
b0 n24
b0 n25
b0 n26
b1 n27
b1 n28
b10000000000000000000000000000000 n29
b0 n30
b0 n31
b0 n32
b0 n33
b0 n34
b0 n35
b0 n36
b0 n37
b0 n38
b0 n39
b0 n40
b0 n41
b0 n42
b0 n43
b0 n44
b0 n45
b0 n46
b0 n47
b0 n48
b0 n49
b0 n50
b0 n51
b0 n52
b0 n53
b0 n54
b0 n55
b0 n56
b0 n57
b0 n58
b0 n59
b0 n60
b0 n61
b0 n62
b0 n63
b0 n64
b0 n66
b00000000000000000000000000000000 n67
b0 n68
b0 n69
b0 n70
b00000000000000000000000000000000 n71
b000000 n72
b0 n73
b0000 n74
b0000000000000000000000000000000000 n75
#5
b0 n65
#10
1!
b00000000000000000000000000000001 t
b1 n65
b0 n0
b0 n1
b0 n2
b0 n3
b0 n4
b0 n5
b0 n6
b0 n7
b0 n8
b00000000000000000000000000000000 n9
b0 n10
b0 n11
b0 n12
b0 n13
b1 n14
b0000 n15
b0 n16
b0 n17
b0 n18
b1 n19
b0 n20
b0 n21
b0 n22
b0 n23
b0 n24
b0 n25
b0 n26
b0 n27
b0 n28
b00000000000000000000000000000000 n29
b0 n30
b0 n31
b0 n32
b0 n33
b0 n34
b0 n35
b0 n36
b0 n37
b0 n38
b1 n39
b0 n40
b0 n41
b0 n42
b0 n43
b0 n44
b0 n45
b0 n46
b0 n47
b0 n48
b0 n49
b0 n50
b0 n51
b0 n52
b0 n53
b0 n54
b0 n55
b0 n56
b0 n57
b0 n58
b0 n59
b0 n60
b0 n61
b0 n62
b1 n63
b0 n64
b1 n66
b00000000000000000000000000000000 n67
b1 n68
b1 n69
b0 n70
b00000000000000000000000000000000 n71
b000000 n72
b0 n73
b0000 n74
b1000000000000000000000000000000000 n75
#15
b0 n65
#20
1!
b00000000000000000000000000000010 t
b1 n65
b0 n0
b0 n1
b1 n2
b0 n3
b0 n4
b1 n5
b0 n6
b1 n7
b0 n8
b00000000000000000000000000000000 n9
b1 n10
b0 n11
b0 n12
b0 n13
b1 n14
b0000 n15
b0 n16
b1 n17
b1 n18
b1 n19
b0 n20
b0 n21
b1 n22
b0 n23
b0 n24
b1 n25
b0 n26
b1 n27
b0 n28
b00000000000000000000000000000000 n29
b1 n30
b0 n31
b0 n32
b0 n33
b0 n34
b0 n35
b0 n36
b0 n37
b0 n38
b1 n39
b0 n40
b0 n41
b0 n42
b0 n43
b0 n44
b0 n45
b0 n46
b0 n47
b0 n48
b0 n49
b0 n50
b0 n51
b0 n52
b0 n53
b0 n54
b0 n55
b0 n56
b0 n57
b0 n58
b0 n59
b0 n60
b1 n61
b1 n62
b1 n63
b0 n64
b1 n66
b00000000000000000000000000000000 n67
b1 n68
b0 n69
b1 n70
b00000000000000000000000000000001 n71
b000001 n72
b0 n73
b0001 n74
b1000000000000000000000000000000000 n75
#25
b0 n65
#30
1!
b00000000000000000000000000000011 t
b1 n65
b1 n0
b0 n1
b1 n2
b0 n3
b1 n4
b1 n5
b0 n6
b0 n7
b0 n8
b00000000000000000000000000000000 n9
b1 n10
b1 n11
b0 n12
b1 n13
b1 n14
b0001 n15
b0 n16
b1 n17
b0 n18
b1 n19
b1 n20
b1 n21
b1 n22
b0 n23
b1 n24
b1 n25
b0 n26
b0 n27
b0 n28
b00000000000000000000000000000000 n29
b1 n30
b0 n31
b0 n32
b1 n33
b1 n34
b1 n35
b0 n36
b0 n37
b1 n38
b0 n39
b0 n40
b0 n41
b0 n42
b0 n43
b0 n44
b0 n45
b0 n46
b0 n47
b0 n48
b0 n49
b0 n50
b0 n51
b0 n52
b0 n53
b0 n54
b0 n55
b1 n56
b1 n57
b1 n58
b0 n59
b0 n60
b1 n61
b1 n62
b1 n63
b0 n64
b0 n66
b00000000000000000000000000000000 n67
b0 n68
b1 n69
b1 n70
b00000000000000000000000000000010 n71
b000010 n72
b1 n73
b0010 n74
b0000000000000000000000000000000000 n75
#35
b0 n65
#40
1!
b00000000000000000000000000000100 t
b1 n65
b1 n0
b0 n1
b0 n2
b1 n3
b1 n4
b0 n5
b1 n6
b1 n7
b0 n8
b00000000000000000000000000000000 n9
b0 n10
b1 n11
b0 n12
b1 n13
b1 n14
b0010 n15
b1 n16
b0 n17
b1 n18
b0 n19
b0 n20
b0 n21
b0 n22
b1 n23
b1 n24
b0 n25
b1 n26
b1 n27
b0 n28
b00000000000000000000000000000000 n29
b0 n30
b0 n31
b0 n32
b1 n33
b1 n34
b1 n35
b0 n36
b1 n37
b1 n38
b1 n39
b0 n40
b0 n41
b0 n42
b0 n43
b0 n44
b0 n45
b0 n46
b0 n47
b0 n48
b0 n49
b0 n50
b0 n51
b0 n52
b0 n53
b0 n54
b0 n55
b1 n56
b1 n57
b1 n58
b0 n59
b1 n60
b1 n61
b1 n62
b1 n63
b0 n64
b0 n66
b00000000000000000000000000000000 n67
b0 n68
b1 n69
b0 n70
b00000000000000000000000000000011 n71
b000100 n72
b1 n73
b0011 n74
b0000000000000000000000000000000000 n75
#45
b0 n65
#50
1!
b00000000000000000000000000000101 t
b1 n65
b1 n0
b0 n1
b0 n2
b1 n3
b0 n4
b0 n5
b1 n6
b1 n7
b0 n8
b00000000000000000000000000000000 n9
b0 n10
b1 n11
b0 n12
b1 n13
b1 n14
b0011 n15
b1 n16
b0 n17
b1 n18
b0 n19
b0 n20
b0 n21
b0 n22
b1 n23
b0 n24
b0 n25
b1 n26
b1 n27
b0 n28
b00000000000000000000000000000000 n29
b0 n30
b0 n31
b0 n32
b1 n33
b1 n34
b1 n35
b0 n36
b0 n37
b0 n38
b0 n39
b0 n40
b0 n41
b0 n42
b0 n43
b0 n44
b0 n45
b0 n46
b0 n47
b0 n48
b0 n49
b0 n50
b0 n51
b0 n52
b0 n53
b0 n54
b0 n55
b1 n56
b1 n57
b1 n58
b0 n59
b0 n60
b0 n61
b1 n62
b1 n63
b0 n64
b0 n66
b00000000000000000000000000000000 n67
b0 n68
b1 n69
b0 n70
b00000000000000000000000000000100 n71
b001000 n72
b1 n73
b0100 n74
b0000000000000000000000000000000000 n75
#55
b0 n65
#60
1!
b00000000000000000000000000000110 t
b1 n65
b1 n0
b0 n1
b0 n2
b1 n3
b0 n4
b0 n5
b1 n6
b1 n7
b0 n8
b00000000000000000000000000000000 n9
b0 n10
b1 n11
b0 n12
b1 n13
b1 n14
b0100 n15
b1 n16
b0 n17
b1 n18
b0 n19
b0 n20
b0 n21
b0 n22
b1 n23
b0 n24
b0 n25
b1 n26
b1 n27
b0 n28
b00000000000000000000000000000000 n29
b0 n30
b0 n31
b0 n32
b0 n33
b0 n34
b0 n35
b0 n36
b0 n37
b0 n38
b0 n39
b0 n40
b0 n41
b0 n42
b0 n43
b0 n44
b0 n45
b0 n46
b0 n47
b0 n48
b0 n49
b0 n50
b0 n51
b0 n52
b0 n53
b0 n54
b0 n55
b0 n56
b0 n57
b0 n58
b0 n59
b0 n60
b0 n61
b1 n62
b1 n63
b0 n64
b0 n66
b00000000000000000000000000000000 n67
b0 n68
b1 n69
b0 n70
b00000000000000000000000000000101 n71
b010000 n72
b1 n73
b0101 n74
b0000000000000000000000000000000000 n75
#65
b0 n65
#70
1!
b00000000000000000000000000000111 t
b1 n65
b1 n0
b0 n1
b0 n2
b1 n3
b0 n4
b0 n5
b1 n6
b1 n7
b0 n8
b00000000000000000000000000000000 n9
b0 n10
b1 n11
b0 n12
b1 n13
b1 n14
b0101 n15
b1 n16
b0 n17
b1 n18
b0 n19
b0 n20
b0 n21
b0 n22
b1 n23
b0 n24
b0 n25
b1 n26
b1 n27
b0 n28
b00000000000000000000000000000000 n29
b0 n30
b0 n31
b0 n32
b1 n33
b1 n34
b1 n35
b0 n36
b1 n37
b0 n38
b0 n39
b0 n40
b0 n41
b0 n42
b0 n43
b0 n44
b0 n45
b0 n46
b0 n47
b0 n48
b0 n49
b0 n50
b0 n51
b0 n52
b0 n53
b0 n54
b0 n55
b1 n56
b1 n57
b1 n58
b0 n59
b1 n60
b0 n61
b1 n62
b1 n63
b0 n64
b0 n66
b00000000000000000000000000000000 n67
b0 n68
b1 n69
b0 n70
b00000000000000000000000000000110 n71
b100000 n72
b1 n73
b0110 n74
b0000000000000000000000000000000000 n75
#75
b0 n65
#80
1!
b00000000000000000000000000001000 t
b1 n65
b1 n0
b0 n1
b0 n2
b1 n3
b0 n4
b0 n5
b1 n6
b1 n7
b0 n8
b00000000000000000000000000000000 n9
b0 n10
b1 n11
b0 n12
b1 n13
b1 n14
b0110 n15
b1 n16
b0 n17
b1 n18
b0 n19
b0 n20
b0 n21
b0 n22
b1 n23
b0 n24
b0 n25
b1 n26
b1 n27
b0 n28
b00000000000000000000000000000000 n29
b0 n30
b0 n31
b0 n32
b1 n33
b1 n34
b1 n35
b0 n36
b1 n37
b0 n38
b0 n39
b0 n40
b0 n41
b0 n42
b0 n43
b0 n44
b0 n45
b0 n46
b0 n47
b0 n48
b0 n49
b0 n50
b0 n51
b0 n52
b0 n53
b0 n54
b0 n55
b1 n56
b1 n57
b1 n58
b0 n59
b1 n60
b0 n61
b1 n62
b1 n63
b0 n64
b0 n66
b00000000000000000000000000000000 n67
b0 n68
b0 n69
b0 n70
b00000000000000000000000000000111 n71
b010000 n72
b0 n73
b0111 n74
b0000000000000000000000000000000000 n75
#85
b0 n65
#90
1!
b00000000000000000000000000001001 t
b1 n65
b1 n0
b0 n1
b0 n2
b0 n3
b0 n4
b0 n5
b0 n6
b0 n7
b0 n8
b00000000000000000000000000000000 n9
b0 n10
b1 n11
b0 n12
b1 n13
b1 n14
b0111 n15
b1 n16
b0 n17
b0 n18
b1 n19
b0 n20
b0 n21
b0 n22
b0 n23
b0 n24
b0 n25
b0 n26
b0 n27
b0 n28
b00000000000000000000000000000000 n29
b0 n30
b0 n31
b0 n32
b1 n33
b1 n34
b1 n35
b0 n36
b1 n37
b0 n38
b1 n39
b0 n40
b0 n41
b0 n42
b0 n43
b0 n44
b0 n45
b0 n46
b0 n47
b0 n48
b0 n49
b0 n50
b0 n51
b0 n52
b0 n53
b0 n54
b0 n55
b1 n56
b1 n57
b1 n58
b0 n59
b1 n60
b0 n61
b1 n62
b1 n63
b0 n64
b1 n66
b00000000000000000000000000000000 n67
b1 n68
b0 n69
b0 n70
b00000000000000000000000000001000 n71
b001000 n72
b0 n73
b1000 n74
b1000000000000000000000000000000000 n75
#95
b0 n65
#100
1!
b00000000000000000000000000001010 t
b1 n65
b1 n0
b0 n1
b1 n2
b0 n3
b0 n4
b1 n5
b0 n6
b0 n7
b0 n8
b00000000000000000000000000000000 n9
b1 n10
b1 n11
b0 n12
b1 n13
b1 n14
b1000 n15
b1 n16
b1 n17
b0 n18
b1 n19
b0 n20
b0 n21
b1 n22
b0 n23
b0 n24
b1 n25
b0 n26
b0 n27
b0 n28
b00000000000000000000000000000000 n29
b1 n30
b0 n31
b0 n32
b1 n33
b1 n34
b1 n35
b0 n36
b1 n37
b0 n38
b0 n39
b0 n40
b0 n41
b0 n42
b0 n43
b0 n44
b0 n45
b0 n46
b0 n47
b0 n48
b0 n49
b0 n50
b0 n51
b0 n52
b0 n53
b0 n54
b0 n55
b1 n56
b1 n57
b1 n58
b0 n59
b1 n60
b0 n61
b1 n62
b1 n63
b0 n64
b0 n66
b00000000000000000000000000000000 n67
b0 n68
b1 n69
b1 n70
b00000000000000000000000000001001 n71
b000100 n72
b1 n73
b1001 n74
b0000000000000000000000000000000000 n75
#105
b0 n65
#110
1!
b00000000000000000000000000001011 t
b1 n65
b1 n0
b0 n1
b0 n2
b1 n3
b1 n4
b0 n5
b1 n6
b1 n7
b0 n8
b00000000000000000000000000000000 n9
b0 n10
b1 n11
b0 n12
b1 n13
b1 n14
b1001 n15
b1 n16
b0 n17
b1 n18
b0 n19
b0 n20
b0 n21
b0 n22
b1 n23
b1 n24
b0 n25
b1 n26
b1 n27
b0 n28
b00000000000000000000000000000000 n29
b0 n30
b0 n31
b0 n32
b1 n33
b1 n34
b1 n35
b0 n36
b1 n37
b0 n38
b1 n39
b0 n40
b0 n41
b0 n42
b0 n43
b0 n44
b0 n45
b0 n46
b0 n47
b0 n48
b0 n49
b0 n50
b0 n51
b0 n52
b0 n53
b0 n54
b0 n55
b1 n56
b1 n57
b1 n58
b0 n59
b1 n60
b0 n61
b1 n62
b1 n63
b0 n64
b1 n66
b00000000000000000000000000000000 n67
b1 n68
b0 n69
b0 n70
b00000000000000000000000000001010 n71
b000010 n72
b0 n73
b1010 n74
b1000000000000000000000000000000000 n75
#115
b0 n65
#120
1!
b00000000000000000000000000001100 t
b1 n65
b1 n0
b0 n1
b1 n2
b0 n3
b0 n4
b1 n5
b0 n6
b0 n7
b0 n8
b00000000000000000000000000000000 n9
b1 n10
b1 n11
b0 n12
b1 n13
b1 n14
b1010 n15
b1 n16
b1 n17
b0 n18
b1 n19
b0 n20
b0 n21
b1 n22
b0 n23
b0 n24
b1 n25
b0 n26
b0 n27
b0 n28
b00000000000000000000000000000000 n29
b1 n30
b0 n31
b0 n32
b1 n33
b1 n34
b1 n35
b0 n36
b0 n37
b0 n38
b1 n39
b0 n40
b0 n41
b0 n42
b0 n43
b0 n44
b0 n45
b0 n46
b0 n47
b0 n48
b0 n49
b0 n50
b0 n51
b0 n52
b0 n53
b0 n54
b0 n55
b1 n56
b1 n57
b1 n58
b0 n59
b0 n60
b0 n61
b1 n62
b1 n63
b0 n64
b1 n66
b00000000000000000000000000000000 n67
b1 n68
b1 n69
b1 n70
b00000000000000000000000000001011 n71
b000001 n72
b1 n73
b1011 n74
b1000000000000000000000000000000000 n75
#125
b0 n65
#130
1!
b00000000000000000000000000001101 t
b1 n65
b1 n0
b0 n1
b1 n2
b1 n3
b1 n4
b1 n5
b1 n6
b1 n7
b0 n8
b00000000000000000000000000000000 n9
b1 n10
b1 n11
b0 n12
b1 n13
b0 n14
b1011 n15
b1 n16
b1 n17
b1 n18
b0 n19
b0 n20
b0 n21
b1 n22
b1 n23
b1 n24
b1 n25
b1 n26
b1 n27
b0 n28
b00000000000000000000000000000000 n29
b1 n30
b0 n31
b0 n32
b0 n33
b0 n34
b0 n35
b0 n36
b0 n37
b0 n38
b1 n39
b0 n40
b0 n41
b0 n42
b0 n43
b0 n44
b0 n45
b0 n46
b0 n47
b0 n48
b0 n49
b0 n50
b0 n51
b0 n52
b0 n53
b0 n54
b0 n55
b0 n56
b0 n57
b0 n58
b0 n59
b0 n60
b0 n61
b0 n62
b1 n63
b0 n64
b1 n66
b00000000000000000000000000000000 n67
b1 n68
b1 n69
b0 n70
b00000000000000000000000000000000 n71
b000001 n72
b0 n73
b0000 n74
b1000000000000000000000000000000000 n75
#135
b0 n65
#140
1!
b00000000000000000000000000001110 t
b1 n65
b0 n0
b1 n1
b1 n2
b0 n3
b0 n4
b1 n5
b0 n6
b1 n7
b0 n8
b00000000000000000000000000000000 n9
b1 n10
b0 n11
b1 n12
b0 n13
b1 n14
b0000 n15
b0 n16
b1 n17
b1 n18
b1 n19
b0 n20
b0 n21
b1 n22
b0 n23
b0 n24
b1 n25
b0 n26
b1 n27
b0 n28
b00000000000000000000000000000000 n29
b1 n30
b0 n31
b0 n32
b0 n33
b0 n34
b0 n35
b0 n36
b0 n37
b0 n38
b0 n39
b0 n40
b0 n41
b0 n42
b0 n43
b0 n44
b0 n45
b0 n46
b0 n47
b0 n48
b0 n49
b0 n50
b0 n51
b0 n52
b0 n53
b0 n54
b0 n55
b0 n56
b0 n57
b0 n58
b0 n59
b0 n60
b0 n61
b1 n62
b1 n63
b0 n64
b0 n66
b00000000000000000000000000000000 n67
b0 n68
b0 n69
b1 n70
b00000000000000000000000000000001 n71
b000001 n72
b0 n73
b0001 n74
b0000000000000000000000000000000000 n75
#145
b0 n65
#150
1!
b00000000000000000000000000001111 t
b1 n65
