Verilog_FormalVerification_Beginner/workspace/12LEDWalker/src/ledwalker/engine_0/trace_induct.vcd
$version Generated by Yosys-SMTBMC $end
$timescale 1ns $end
$var integer 32 t smt_step $end
$var event 1 ! smt_clock $end
$scope module ledwalker $end
$var wire 8 n8 \$auto$proc_rom.cc:150:do_switch$49<7> $end
$scope module _witness_ $end
$var wire 1 n0 anyinit_procdff_74 $end
$var wire 1 n1 anyinit_procdff_76 $end
$upscope $end
$var wire 1 n2 f_valid_output $end
$var wire 1 n3 i_clk $end
$var wire 4 n4 led_index $end
$var wire 8 n5 o_led $end
$var wire 1 n6 stb $end
$var wire 32 n7 wait_counter $end
$upscope $end
$enddefinitions $end
#0
1!
b00000000000000000000000000000000 t
b1 n3
b0 n0
b0 n1
b1 n2
b0111 n4
b00000001 n5
b0 n6
b00000000000000000000000011000111 n7
b00000001 n8
#5
b0 n3
#10
1!
b00000000000000000000000000000001 t
b1 n3
b1 n0
b1 n1
b1 n2
b0111 n4
b00000001 n5
b0 n6
b00000000000000000000000011000110 n7
b00000001 n8
#15
b0 n3
#20
1!
b00000000000000000000000000000010 t
b1 n3
b1 n0
b1 n1
b1 n2
b0111 n4
b00000001 n5
b0 n6
b00000000000000000000000011000101 n7
b00000001 n8
#25
b0 n3
#30
1!
b00000000000000000000000000000011 t
b1 n3
b1 n0
b1 n1
b1 n2
b0111 n4
b00000001 n5
b0 n6
b00000000000000000000000011000100 n7
b00000001 n8
#35
b0 n3
#40
1!
b00000000000000000000000000000100 t
b1 n3
b1 n0
b1 n1
b1 n2
b0111 n4
b00000001 n5
b0 n6
b00000000000000000000000011000011 n7
b00000001 n8
#45
b0 n3
#50
1!
b00000000000000000000000000000101 t
b1 n3
b1 n0
b1 n1
b1 n2
b0111 n4
b00000001 n5
b0 n6
b00000000000000000000000011000010 n7
b00000001 n8
#55
b0 n3
#60
1!
b00000000000000000000000000000110 t
b1 n3
b1 n0
b1 n1
b1 n2
b0111 n4
b00000001 n5
b0 n6
b00000000000000000000000011000001 n7
b00000001 n8
#65
b0 n3
#70
1!
b00000000000000000000000000000111 t
b1 n3
b1 n0
b1 n1
b1 n2
b0111 n4
b00000001 n5
b0 n6
b00000000000000000000000011000000 n7
b00000001 n8
#75
b0 n3
#80
1!
b00000000000000000000000000001000 t
b1 n3
b1 n0
b1 n1
b1 n2
b0111 n4
b00000001 n5
b0 n6
b00000000000000000000000010111111 n7
b00000001 n8
#85
b0 n3
#90
1!
b00000000000000000000000000001001 t
b1 n3
b1 n0
b1 n1
b1 n2
b0111 n4
b00000001 n5
b0 n6
b00000000000000000000000010111110 n7
b00000001 n8
#95
b0 n3
#100
1!
b00000000000000000000000000001010 t
b1 n3
b1 n0
b1 n1
b1 n2
b0111 n4
b00000001 n5
b0 n6
b00000000000000000000000010111101 n7
b00000001 n8
#105
b0 n3
#110
1!
b00000000000000000000000000001011 t
b1 n3
b1 n0
b1 n1
b1 n2
b0111 n4
b00000001 n5
b0 n6
b00000000000000000000000010111100 n7
b00000001 n8
#115
b0 n3
#120
1!
b00000000000000000000000000001100 t
b1 n3
b1 n0
b1 n1
b1 n2
b0111 n4
b00000001 n5
b0 n6
b00000000000000000000000010111011 n7
b00000001 n8
#125
b0 n3
#130
1!
b00000000000000000000000000001101 t
b1 n3
b1 n0
b1 n1
b1 n2
b0111 n4
b00000001 n5
b0 n6
b00000000000000000000000010111010 n7
b00000001 n8
#135
b0 n3
#140
1!
b00000000000000000000000000001110 t
b1 n3
b1 n0
b1 n1
b1 n2
b0111 n4
b00000001 n5
b0 n6
b00000000000000000000000010111001 n7
b00000001 n8
#145
b0 n3
#150
1!
b00000000000000000000000000001111 t
b1 n3
b1 n0
b1 n1
b1 n2
b0111 n4
b00000001 n5
b0 n6
b00000000000000000000000010111000 n7
b00000001 n8
#155
b0 n3
#160
1!
b00000000000000000000000000010000 t
b1 n3
b1 n0
b1 n1
b1 n2
b0111 n4
b00000001 n5
b0 n6
b00000000000000000000000010110111 n7
b00000001 n8
#165
b0 n3
#170
1!
b00000000000000000000000000010001 t
b1 n3
b1 n0
b1 n1
b1 n2
b0111 n4
b00000001 n5
b0 n6
b00000000000000000000000010110110 n7
b00000001 n8
#175
b0 n3
#180
1!
b00000000000000000000000000010010 t
b1 n3
b1 n0
b1 n1
b1 n2
b0111 n4
b00000001 n5
b0 n6
b00000000000000000000000010110101 n7
b00000001 n8
#185
b0 n3
#190
1!
b00000000000000000000000000010011 t
b1 n3
b1 n0
b1 n1
b1 n2
b0111 n4
b00000001 n5
b0 n6
b00000000000000000000000010110100 n7
b00000001 n8
#195
b0 n3
#200
1!
b00000000000000000000000000010100 t
b1 n3
b1 n0
b1 n1
b1 n2
b0111 n4
b00000001 n5
b0 n6
b00000000000000000000000010110011 n7
b00000001 n8
#205
b0 n3
#210
1!
b00000000000000000000000000010101 t
b1 n3
b1 n0
b1 n1
b1 n2
b0111 n4
b00000001 n5
b0 n6
b00000000000000000000000010110010 n7
b00000001 n8
#215
b0 n3
#220
1!
b00000000000000000000000000010110 t
b1 n3
b1 n0
b1 n1
b1 n2
b0111 n4
b00000001 n5
b0 n6
b00000000000000000000000010110001 n7
b00000001 n8
#225
b0 n3
#230
1!
b00000000000000000000000000010111 t
b1 n3
b1 n0
b1 n1
b1 n2
b0111 n4
b00000001 n5
b0 n6
b00000000000000000000000010110000 n7
b00000001 n8
#235
b0 n3
#240
1!
b00000000000000000000000000011000 t
b1 n3
b1 n0
b1 n1
b1 n2
b0111 n4
b00000001 n5
b0 n6
b00000000000000000000000010101111 n7
b00000001 n8
#245
b0 n3
#250
1!
b00000000000000000000000000011001 t
b1 n3
b1 n0
b1 n1
b1 n2
b0111 n4
b00000001 n5
b0 n6
b00000000000000000000000010101110 n7
b00000001 n8
#255
b0 n3
#260
1!
b00000000000000000000000000011010 t
b1 n3
b1 n0
b1 n1
b1 n2
b0111 n4
b00000001 n5
b0 n6
b00000000000000000000000010101101 n7
b00000001 n8
#265
b0 n3
#270
1!
b00000000000000000000000000011011 t
b1 n3
b1 n0
b1 n1
b1 n2
b0111 n4
b00000001 n5
b0 n6
b00000000000000000000000010101100 n7
b00000001 n8
#275
b0 n3
#280
1!
b00000000000000000000000000011100 t
b1 n3
b1 n0
b1 n1
b1 n2
b0111 n4
b00000001 n5
b0 n6
b00000000000000000000000010101011 n7
b00000001 n8
#285
b0 n3
#290
1!
b00000000000000000000000000011101 t
b1 n3
b1 n0
b1 n1
b1 n2
b0111 n4
b00000001 n5
b0 n6
b00000000000000000000000010101010 n7
b00000001 n8
#295
b0 n3
#300
1!
b00000000000000000000000000011110 t
b1 n3
b1 n0
b1 n1
b1 n2
b0111 n4
b00000001 n5
b0 n6
b00000000000000000000000010101001 n7
b00000001 n8
#305
b0 n3
#310
1!
b00000000000000000000000000011111 t
b1 n3
b1 n0
b1 n1
b1 n2
b0111 n4
b00000001 n5
b0 n6
b00000000000000000000000010101000 n7
b00000001 n8
#315
b0 n3
#320
1!
b00000000000000000000000000100000 t
b1 n3
b1 n0
b1 n1
b1 n2
b0111 n4
b00000001 n5
b0 n6
b00000000000000000000000010100111 n7
b00000001 n8
#325
b0 n3
#330
1!
b00000000000000000000000000100001 t
b1 n3
b1 n0
b1 n1
b1 n2
b0111 n4
b00000001 n5
b0 n6
b00000000000000000000000010100110 n7
b00000001 n8
#335
b0 n3
#340
1!
b00000000000000000000000000100010 t
b1 n3
b1 n0
b1 n1
b1 n2
b0111 n4
b00000001 n5
b0 n6
b00000000000000000000000010100101 n7
b00000001 n8
#345
b0 n3
#350
1!
b00000000000000000000000000100011 t
b1 n3
b1 n0
b1 n1
b1 n2
b0111 n4
b00000001 n5
b0 n6
b00000000000000000000000010100100 n7
b00000001 n8
#355
b0 n3
#360
1!
b00000000000000000000000000100100 t
b1 n3
b1 n0
b1 n1
b1 n2
b0111 n4
b00000001 n5
b0 n6
b00000000000000000000000010100011 n7
b00000001 n8
#365
b0 n3
#370
1!
b00000000000000000000000000100101 t
b1 n3
b1 n0
b1 n1
b1 n2
b0111 n4
b00000001 n5
b0 n6
b00000000000000000000000010100010 n7
b00000001 n8
#375
b0 n3
#380
1!
b00000000000000000000000000100110 t
b1 n3
b1 n0
b1 n1
b1 n2
b0111 n4
b00000001 n5
b0 n6
b00000000000000000000000010100001 n7
b00000001 n8
#385
b0 n3
#390
1!
b00000000000000000000000000100111 t
b1 n3
b1 n0
b1 n1
b1 n2
b0111 n4
b00000001 n5
b0 n6
b00000000000000000000000010100000 n7
b00000001 n8
#395
b0 n3
#400
1!
b00000000000000000000000000101000 t
b1 n3
b1 n0
b1 n1
b1 n2
b0111 n4
b00000001 n5
b0 n6
b00000000000000000000000010011111 n7
b00000001 n8
#405
b0 n3
#410
1!
b00000000000000000000000000101001 t
b1 n3
b1 n0
b1 n1
b1 n2
b0111 n4
b00000001 n5
b0 n6
b00000000000000000000000010011110 n7
b00000001 n8
#415
b0 n3
#420
1!
b00000000000000000000000000101010 t
b1 n3
b1 n0
b1 n1
b1 n2
b0111 n4
b00000001 n5
b0 n6
b00000000000000000000000010011101 n7
b00000001 n8
#425
b0 n3
#430
1!
b00000000000000000000000000101011 t
b1 n3
b1 n0
b1 n1
b1 n2
b0111 n4
b00000001 n5
b0 n6
b00000000000000000000000010011100 n7
b00000001 n8
#435
b0 n3
#440
1!
b00000000000000000000000000101100 t
b1 n3
b1 n0
b1 n1
b1 n2
b0111 n4
b00000001 n5
b0 n6
b00000000000000000000000010011011 n7
b00000001 n8
#445
b0 n3
#450
1!
b00000000000000000000000000101101 t
b1 n3
b1 n0
b1 n1
b1 n2
b0111 n4
b00000001 n5
b0 n6
b00000000000000000000000010011010 n7
b00000001 n8
#455
b0 n3
#460
1!
b00000000000000000000000000101110 t
b1 n3
b1 n0
b1 n1
b1 n2
b0111 n4
b00000001 n5
b0 n6
b00000000000000000000000010011001 n7
b00000001 n8
#465
b0 n3
#470
1!
b00000000000000000000000000101111 t
b1 n3
b1 n0
b1 n1
b1 n2
b0111 n4
b00000001 n5
b0 n6
b00000000000000000000000010011000 n7
b00000001 n8
#475
b0 n3
#480
1!
b00000000000000000000000000110000 t
b1 n3
b1 n0
b1 n1
b1 n2
b0111 n4
b00000001 n5
b0 n6
b00000000000000000000000010010111 n7
b00000001 n8
#485
b0 n3
#490
1!
b00000000000000000000000000110001 t
b1 n3
b1 n0
b1 n1
b1 n2
b0111 n4
b00000001 n5
b0 n6
b00000000000000000000000010010110 n7
b00000001 n8
#495
b0 n3
#500
1!
b00000000000000000000000000110010 t
b1 n3
b1 n0
b1 n1
b1 n2
b0111 n4
b00000001 n5
b0 n6
b00000000000000000000000010010101 n7
b00000001 n8
#505
b0 n3
#510
1!
b00000000000000000000000000110011 t
b1 n3
b1 n0
b1 n1
b1 n2
b0111 n4
b00000001 n5
b0 n6
b00000000000000000000000010010100 n7
b00000001 n8
#515
b0 n3
#520
1!
b00000000000000000000000000110100 t
b1 n3
b1 n0
b1 n1
b1 n2
b0111 n4
b00000001 n5
b0 n6
b00000000000000000000000010010011 n7
b00000001 n8
#525
b0 n3
#530
1!
b00000000000000000000000000110101 t
b1 n3
b1 n0
b1 n1
b1 n2
b0111 n4
b00000001 n5
b0 n6
b00000000000000000000000010010010 n7
b00000001 n8
#535
b0 n3
#540
1!
b00000000000000000000000000110110 t
b1 n3
b1 n0
b1 n1
b1 n2
b0111 n4
b00000001 n5
b0 n6
b00000000000000000000000010010001 n7
b00000001 n8
#545
b0 n3
#550
1!
b00000000000000000000000000110111 t
b1 n3
b1 n0
b1 n1
b1 n2
b0111 n4
b00000001 n5
b0 n6
b00000000000000000000000010010000 n7
b00000001 n8
#555
b0 n3
#560
1!
b00000000000000000000000000111000 t
b1 n3
b1 n0
b1 n1
b1 n2
b0111 n4
b00000001 n5
b0 n6
b00000000000000000000000010001111 n7
b00000001 n8
#565
b0 n3
#570
1!
b00000000000000000000000000111001 t
b1 n3
b1 n0
b1 n1
b1 n2
b0111 n4
b00000001 n5
b0 n6
b00000000000000000000000010001110 n7
b00000001 n8
#575
b0 n3
#580
1!
b00000000000000000000000000111010 t
b1 n3
b1 n0
b1 n1
b1 n2
b0111 n4
b00000001 n5
b0 n6
b00000000000000000000000010001101 n7
b00000001 n8
#585
b0 n3
#590
1!
b00000000000000000000000000111011 t
b1 n3
b1 n0
b1 n1
b1 n2
b0111 n4
b00000001 n5
b0 n6
b00000000000000000000000010001100 n7
b00000001 n8
#595
b0 n3
#600
1!
b00000000000000000000000000111100 t
b1 n3
b1 n0
b1 n1
b1 n2
b0111 n4
b00000001 n5
b0 n6
b00000000000000000000000010001011 n7
b00000001 n8
#605
b0 n3
#610
1!
b00000000000000000000000000111101 t
b1 n3
b1 n0
b1 n1
b1 n2
b0111 n4
b00000001 n5
b0 n6
b00000000000000000000000010001010 n7
b00000001 n8
#615
b0 n3
#620
1!
b00000000000000000000000000111110 t
b1 n3
b1 n0
b1 n1
b1 n2
b0111 n4
b00000001 n5
b0 n6
b00000000000000000000000010001001 n7
b00000001 n8
#625
b0 n3
#630
1!
b00000000000000000000000000111111 t
b1 n3
b1 n0
b1 n1
b1 n2
b0111 n4
b00000001 n5
b0 n6
b00000000000000000000000010001000 n7
b00000001 n8
#635
b0 n3
#640
1!
b00000000000000000000000001000000 t
b1 n3
b1 n0
b1 n1
b1 n2
b0111 n4
b00000001 n5
b0 n6
b00000000000000000000000010000111 n7
b00000001 n8
#645
b0 n3
#650
1!
b00000000000000000000000001000001 t
b1 n3
b1 n0
b1 n1
b1 n2
b0111 n4
b00000001 n5
b0 n6
b00000000000000000000000010000110 n7
b00000001 n8
#655
b0 n3
#660
1!
b00000000000000000000000001000010 t
b1 n3
b1 n0
b1 n1
b1 n2
b0111 n4
b00000001 n5
b0 n6
b00000000000000000000000010000101 n7
b00000001 n8
#665
b0 n3
#670
1!
b00000000000000000000000001000011 t
b1 n3
b1 n0
b1 n1
b1 n2
b0111 n4
b00000001 n5
b0 n6
b00000000000000000000000010000100 n7
b00000001 n8
#675
b0 n3
#680
1!
b00000000000000000000000001000100 t
b1 n3
b1 n0
b1 n1
b1 n2
b0111 n4
b00000001 n5
b0 n6
b00000000000000000000000010000011 n7
b00000001 n8
#685
b0 n3
#690
1!
b00000000000000000000000001000101 t
b1 n3
b1 n0
b1 n1
b1 n2
b0111 n4
b00000001 n5
b0 n6
b00000000000000000000000010000010 n7
b00000001 n8
#695
b0 n3
#700
1!
b00000000000000000000000001000110 t
b1 n3
b1 n0
b1 n1
b1 n2
b0111 n4
b00000001 n5
b0 n6
b00000000000000000000000010000001 n7
b00000001 n8
#705
b0 n3
#710
1!
b00000000000000000000000001000111 t
b1 n3
b1 n0
b1 n1
b1 n2
b0111 n4
b00000001 n5
b0 n6
b00000000000000000000000010000000 n7
b00000001 n8
#715
b0 n3
#720
1!
b00000000000000000000000001001000 t
b1 n3
b1 n0
b1 n1
b1 n2
b0111 n4
b00000001 n5
b0 n6
b00000000000000000000000001111111 n7
b00000001 n8
#725
b0 n3
#730
1!
b00000000000000000000000001001001 t
b1 n3
b1 n0
b1 n1
b1 n2
b0111 n4
b00000001 n5
b0 n6
b00000000000000000000000001111110 n7
b00000001 n8
#735
b0 n3
#740
1!
b00000000000000000000000001001010 t
b1 n3
b1 n0
b1 n1
b1 n2
b0111 n4
b00000001 n5
b0 n6
b00000000000000000000000001111101 n7
b00000001 n8
#745
b0 n3
#750
1!
b00000000000000000000000001001011 t
b1 n3
b1 n0
b1 n1
b1 n2
b0111 n4
b00000001 n5
b0 n6
b00000000000000000000000001111100 n7
b00000001 n8
#755
b0 n3
#760
1!
b00000000000000000000000001001100 t
b1 n3
b1 n0
b1 n1
b1 n2
b0111 n4
b00000001 n5
b0 n6
b00000000000000000000000001111011 n7
b00000001 n8
#765
b0 n3
#770
1!
b00000000000000000000000001001101 t
b1 n3
b1 n0
b1 n1
b1 n2
b0111 n4
b00000001 n5
b0 n6
b00000000000000000000000001111010 n7
b00000001 n8
#775
b0 n3
#780
1!
b00000000000000000000000001001110 t
b1 n3
b1 n0
b1 n1
b1 n2
b0111 n4
b00000001 n5
b0 n6
b00000000000000000000000001111001 n7
b00000001 n8
#785
b0 n3
#790
1!
b00000000000000000000000001001111 t
b1 n3
b1 n0
b1 n1
b1 n2
b0111 n4
b00000001 n5
b0 n6
b00000000000000000000000001111000 n7
b00000001 n8
#795
b0 n3
#800
1!
b00000000000000000000000001010000 t
b1 n3
b1 n0
b1 n1
b1 n2
b0111 n4
b00000001 n5
b0 n6
b00000000000000000000000001110111 n7
b00000001 n8
#805
b0 n3
#810
1!
b00000000000000000000000001010001 t
b1 n3
b1 n0
b1 n1
b1 n2
b0111 n4
b00000001 n5
b0 n6
b00000000000000000000000001110110 n7
b00000001 n8
#815
b0 n3
#820
1!
b00000000000000000000000001010010 t
b1 n3
b1 n0
b1 n1
b1 n2
b0111 n4
b00000001 n5
b0 n6
b00000000000000000000000001110101 n7
b00000001 n8
#825
b0 n3
#830
1!
b00000000000000000000000001010011 t
b1 n3
b1 n0
b1 n1
b1 n2
b0111 n4
b00000001 n5
b0 n6
b00000000000000000000000001110100 n7
b00000001 n8
#835
b0 n3
#840
1!
b00000000000000000000000001010100 t
b1 n3
b1 n0
b1 n1
b1 n2
b0111 n4
b00000001 n5
b0 n6
b00000000000000000000000001110011 n7
b00000001 n8
#845
b0 n3
#850
1!
b00000000000000000000000001010101 t
b1 n3
b1 n0
b1 n1
b1 n2
b0111 n4
b00000001 n5
b0 n6
b00000000000000000000000001110010 n7
b00000001 n8
#855
b0 n3
#860
1!
b00000000000000000000000001010110 t
b1 n3
b1 n0
b1 n1
b1 n2
b0111 n4
b00000001 n5
b0 n6
b00000000000000000000000001110001 n7
b00000001 n8
#865
b0 n3
#870
1!
b00000000000000000000000001010111 t
b1 n3
b1 n0
b1 n1
b1 n2
b0111 n4
b00000001 n5
b0 n6
b00000000000000000000000001110000 n7
b00000001 n8
#875
b0 n3
#880
1!
b00000000000000000000000001011000 t
b1 n3
b1 n0
b1 n1
b1 n2
b0111 n4
b00000001 n5
b0 n6
b00000000000000000000000001101111 n7
b00000001 n8
#885
b0 n3
#890
1!
b00000000000000000000000001011001 t
b1 n3
b1 n0
b1 n1
b1 n2
b0111 n4
b00000001 n5
b0 n6
b00000000000000000000000001101110 n7
b00000001 n8
#895
b0 n3
#900
1!
b00000000000000000000000001011010 t
b1 n3
b1 n0
b1 n1
b1 n2
b0111 n4
b00000001 n5
b0 n6
b00000000000000000000000001101101 n7
b00000001 n8
#905
b0 n3
#910
1!
b00000000000000000000000001011011 t
b1 n3
b1 n0
b1 n1
b1 n2
b0111 n4
b00000001 n5
b0 n6
b00000000000000000000000001101100 n7
b00000001 n8
#915
b0 n3
#920
1!
b00000000000000000000000001011100 t
b1 n3
b1 n0
b1 n1
b1 n2
b0111 n4
b00000001 n5
b0 n6
b00000000000000000000000001101011 n7
b00000001 n8
#925
b0 n3
#930
1!
b00000000000000000000000001011101 t
b1 n3
b1 n0
b1 n1
b1 n2
b0111 n4
b00000001 n5
b0 n6
b00000000000000000000000001101010 n7
b00000001 n8
#935
b0 n3
#940
1!
b00000000000000000000000001011110 t
b1 n3
b1 n0
b1 n1
b1 n2
b0111 n4
b00000001 n5
b0 n6
b00000000000000000000000001101001 n7
b00000001 n8
#945
b0 n3
#950
1!
b00000000000000000000000001011111 t
b1 n3
b1 n0
b1 n1
b1 n2
b0111 n4
b00000001 n5
b0 n6
b00000000000000000000000001101000 n7
b00000001 n8
#955
b0 n3
#960
1!
b00000000000000000000000001100000 t
b1 n3
b1 n0
b1 n1
b1 n2
b0111 n4
b00000001 n5
b0 n6
b00000000000000000000000001100111 n7
b00000001 n8
#965
b0 n3
#970
1!
b00000000000000000000000001100001 t
b1 n3
b1 n0
b1 n1
b1 n2
b0111 n4
b00000001 n5
b0 n6
b00000000000000000000000001100110 n7
b00000001 n8
#975
b0 n3
#980
1!
b00000000000000000000000001100010 t
b1 n3
b1 n0
b1 n1
b1 n2
b0111 n4
b00000001 n5
b0 n6
b00000000000000000000000001100101 n7
b00000001 n8
#985
b0 n3
#990
1!
b00000000000000000000000001100011 t
b1 n3
b1 n0
b1 n1
b1 n2
b0111 n4
b00000001 n5
b0 n6
b00000000000000000000000001100100 n7
b00000001 n8
#995
b0 n3
#1000
1!
b00000000000000000000000001100100 t
b1 n3
b1 n0
b1 n1
b1 n2
b0111 n4
b00000001 n5
b0 n6
b00000000000000000000000001100011 n7
b00000001 n8
#1005
b0 n3
#1010
1!
b00000000000000000000000001100101 t
b1 n3
b1 n0
b1 n1
b1 n2
b0111 n4
b00000001 n5
b0 n6
b00000000000000000000000001100010 n7
b00000001 n8
#1015
b0 n3
#1020
1!
b00000000000000000000000001100110 t
b1 n3
b1 n0
b1 n1
b1 n2
b0111 n4
b00000001 n5
b0 n6
b00000000000000000000000001100001 n7
b00000001 n8
#1025
b0 n3
#1030
1!
b00000000000000000000000001100111 t
b1 n3
b1 n0
b1 n1
b1 n2
b0111 n4
b00000001 n5
b0 n6
b00000000000000000000000001100000 n7
b00000001 n8
#1035
b0 n3
#1040
1!
b00000000000000000000000001101000 t
b1 n3
b1 n0
b1 n1
b1 n2
b0111 n4
b00000001 n5
b0 n6
b00000000000000000000000001011111 n7
b00000001 n8
#1045
b0 n3
#1050
1!
b00000000000000000000000001101001 t
b1 n3
b1 n0
b1 n1
b1 n2
b0111 n4
b00000001 n5
b0 n6
b00000000000000000000000001011110 n7
b00000001 n8
#1055
b0 n3
#1060
1!
b00000000000000000000000001101010 t
b1 n3
b1 n0
b1 n1
b1 n2
b0111 n4
b00000001 n5
b0 n6
b00000000000000000000000001011101 n7
b00000001 n8
#1065
b0 n3
#1070
1!
b00000000000000000000000001101011 t
b1 n3
b1 n0
b1 n1
b1 n2
b0111 n4
b00000001 n5
b0 n6
b00000000000000000000000001011100 n7
b00000001 n8
#1075
b0 n3
#1080
1!
b00000000000000000000000001101100 t
b1 n3
b1 n0
b1 n1
b1 n2
b0111 n4
b00000001 n5
b0 n6
b00000000000000000000000001011011 n7
b00000001 n8
#1085
b0 n3
#1090
1!
b00000000000000000000000001101101 t
b1 n3
b1 n0
b1 n1
b1 n2
b0111 n4
b00000001 n5
b0 n6
b00000000000000000000000001011010 n7
b00000001 n8
#1095
b0 n3
#1100
1!
b00000000000000000000000001101110 t
b1 n3
b1 n0
b1 n1
b1 n2
b0111 n4
b00000001 n5
b0 n6
b00000000000000000000000001011001 n7
b00000001 n8
#1105
b0 n3
#1110
1!
b00000000000000000000000001101111 t
b1 n3
b1 n0
b1 n1
b1 n2
b0111 n4
b00000001 n5
b0 n6
b00000000000000000000000001011000 n7
b00000001 n8
#1115
b0 n3
#1120
1!
b00000000000000000000000001110000 t
b1 n3
b1 n0
b1 n1
b1 n2
b0111 n4
b00000001 n5
b0 n6
b00000000000000000000000001010111 n7
b00000001 n8
#1125
b0 n3
#1130
1!
b00000000000000000000000001110001 t
b1 n3
b1 n0
b1 n1
b1 n2
b0111 n4
b00000001 n5
b0 n6
b00000000000000000000000001010110 n7
b00000001 n8
#1135
b0 n3
#1140
1!
b00000000000000000000000001110010 t
b1 n3
b1 n0
b1 n1
b1 n2
b0111 n4
b00000001 n5
b0 n6
b00000000000000000000000001010101 n7
b00000001 n8
#1145
b0 n3
#1150
1!
b00000000000000000000000001110011 t
b1 n3
b1 n0
b1 n1
b1 n2
b0111 n4
b00000001 n5
b0 n6
b00000000000000000000000001010100 n7
b00000001 n8
#1155
b0 n3
#1160
1!
b00000000000000000000000001110100 t
b1 n3
b1 n0
b1 n1
b1 n2
b0111 n4
b00000001 n5
b0 n6
b00000000000000000000000001010011 n7
b00000001 n8
#1165
b0 n3
#1170
1!
b00000000000000000000000001110101 t
b1 n3
b1 n0
b1 n1
b1 n2
b0111 n4
b00000001 n5
b0 n6
b00000000000000000000000001010010 n7
b00000001 n8
#1175
b0 n3
#1180
1!
b00000000000000000000000001110110 t
b1 n3
b1 n0
b1 n1
b1 n2
b0111 n4
b00000001 n5
b0 n6
b00000000000000000000000001010001 n7
b00000001 n8
#1185
b0 n3
#1190
1!
b00000000000000000000000001110111 t
b1 n3
b1 n0
b1 n1
b1 n2
b0111 n4
b00000001 n5
b0 n6
b00000000000000000000000001010000 n7
b00000001 n8
#1195
b0 n3
#1200
1!
b00000000000000000000000001111000 t
b1 n3
b1 n0
b1 n1
b1 n2
b0111 n4
b00000001 n5
b0 n6
b00000000000000000000000001001111 n7
b00000001 n8
#1205
b0 n3
#1210
1!
b00000000000000000000000001111001 t
b1 n3
b1 n0
b1 n1
b1 n2
b0111 n4
b00000001 n5
b0 n6
b00000000000000000000000001001110 n7
b00000001 n8
#1215
b0 n3
#1220
1!
b00000000000000000000000001111010 t
b1 n3
b1 n0
b1 n1
b1 n2
b0111 n4
b00000001 n5
b0 n6
b00000000000000000000000001001101 n7
b00000001 n8
#1225
b0 n3
#1230
1!
b00000000000000000000000001111011 t
b1 n3
b1 n0
b1 n1
b1 n2
b0111 n4
b00000001 n5
b0 n6
b00000000000000000000000001001100 n7
b00000001 n8
#1235
b0 n3
#1240
1!
b00000000000000000000000001111100 t
b1 n3
b1 n0
b1 n1
b1 n2
b0111 n4
b00000001 n5
b0 n6
b00000000000000000000000001001011 n7
b00000001 n8
#1245
b0 n3
#1250
1!
b00000000000000000000000001111101 t
b1 n3
b1 n0
b1 n1
b1 n2
b0111 n4
b00000001 n5
b0 n6
b00000000000000000000000001001010 n7
b00000001 n8
#1255
b0 n3
#1260
1!
b00000000000000000000000001111110 t
b1 n3
b1 n0
b1 n1
b1 n2
b0111 n4
b00000001 n5
b0 n6
b00000000000000000000000001001001 n7
b00000001 n8
#1265
b0 n3
#1270
1!
b00000000000000000000000001111111 t
b1 n3
b1 n0
b1 n1
b1 n2
b0111 n4
b00000001 n5
b0 n6
b00000000000000000000000001001000 n7
b00000001 n8
#1275
b0 n3
#1280
1!
b00000000000000000000000010000000 t
b1 n3
b1 n0
b1 n1
b1 n2
b0111 n4
b00000001 n5
b0 n6
b00000000000000000000000001000111 n7
b00000001 n8
#1285
b0 n3
#1290
1!
b00000000000000000000000010000001 t
b1 n3
b1 n0
b1 n1
b1 n2
b0111 n4
b00000001 n5
b0 n6
b00000000000000000000000001000110 n7
b00000001 n8
#1295
b0 n3
#1300
1!
b00000000000000000000000010000010 t
b1 n3
b1 n0
b1 n1
b1 n2
b0111 n4
b00000001 n5
b0 n6
b00000000000000000000000001000101 n7
b00000001 n8
#1305
b0 n3
#1310
1!
b00000000000000000000000010000011 t
b1 n3
b1 n0
b1 n1
b1 n2
b0111 n4
b00000001 n5
b0 n6
b00000000000000000000000001000100 n7
b00000001 n8
#1315
b0 n3
#1320
1!
b00000000000000000000000010000100 t
b1 n3
b1 n0
b1 n1
b1 n2
b0111 n4
b00000001 n5
b0 n6
b00000000000000000000000001000011 n7
b00000001 n8
#1325
b0 n3
#1330
1!
b00000000000000000000000010000101 t
b1 n3
b1 n0
b1 n1
b1 n2
b0111 n4
b00000001 n5
b0 n6
b00000000000000000000000001000010 n7
b00000001 n8
#1335
b0 n3
#1340
1!
b00000000000000000000000010000110 t
b1 n3
b1 n0
b1 n1
b1 n2
b0111 n4
b00000001 n5
b0 n6
b00000000000000000000000001000001 n7
b00000001 n8
#1345
b0 n3
#1350
1!
b00000000000000000000000010000111 t
b1 n3
b1 n0
b1 n1
b1 n2
b0111 n4
b00000001 n5
b0 n6
b00000000000000000000000001000000 n7
b00000001 n8
#1355
b0 n3
#1360
1!
b00000000000000000000000010001000 t
b1 n3
b1 n0
b1 n1
b1 n2
b0111 n4
b00000001 n5
b0 n6
b00000000000000000000000000111111 n7
b00000001 n8
#1365
b0 n3
#1370
1!
b00000000000000000000000010001001 t
b1 n3
b1 n0
b1 n1
b1 n2
b0111 n4
b00000001 n5
b0 n6
b00000000000000000000000000111110 n7
b00000001 n8
#1375
b0 n3
#1380
1!
b00000000000000000000000010001010 t
b1 n3
b1 n0
b1 n1
b1 n2
b0111 n4
b00000001 n5
b0 n6
b00000000000000000000000000111101 n7
b00000001 n8
#1385
b0 n3
#1390
1!
b00000000000000000000000010001011 t
b1 n3
b1 n0
b1 n1
b1 n2
b0111 n4
b00000001 n5
b0 n6
b00000000000000000000000000111100 n7
b00000001 n8
#1395
b0 n3
#1400
1!
b00000000000000000000000010001100 t
b1 n3
b1 n0
b1 n1
b1 n2
b0111 n4
b00000001 n5
b0 n6
b00000000000000000000000000111011 n7
b00000001 n8
#1405
b0 n3
#1410
1!
b00000000000000000000000010001101 t
b1 n3
b1 n0
b1 n1
b1 n2
b0111 n4
b00000001 n5
b0 n6
b00000000000000000000000000111010 n7
b00000001 n8
#1415
b0 n3
#1420
1!
b00000000000000000000000010001110 t
b1 n3
b1 n0
b1 n1
b1 n2
b0111 n4
b00000001 n5
b0 n6
b00000000000000000000000000111001 n7
b00000001 n8
#1425
b0 n3
#1430
1!
b00000000000000000000000010001111 t
b1 n3
b1 n0
b1 n1
b1 n2
b0111 n4
b00000001 n5
b0 n6
b00000000000000000000000000111000 n7
b00000001 n8
#1435
b0 n3
#1440
1!
b00000000000000000000000010010000 t
b1 n3
b1 n0
b1 n1
b1 n2
b0111 n4
b00000001 n5
b0 n6
b00000000000000000000000000110111 n7
b00000001 n8
#1445
b0 n3
#1450
1!
b00000000000000000000000010010001 t
b1 n3
b1 n0
b1 n1
b1 n2
b0111 n4
b00000001 n5
b0 n6
b00000000000000000000000000110110 n7
b00000001 n8
#1455
b0 n3
#1460
1!
b00000000000000000000000010010010 t
b1 n3
b1 n0
b1 n1
b1 n2
b0111 n4
b00000001 n5
b0 n6
b00000000000000000000000000110101 n7
b00000001 n8
#1465
b0 n3
